EESchema Schematic File Version 4
EELAYER 30 0
EELAYER END
$Descr A4 11693 8268
encoding utf-8
Sheet 13 14
Title ""
Date ""
Rev ""
Comp ""
Comment1 ""
Comment2 ""
Comment3 ""
Comment4 ""
$EndDescr
$Comp
L Device:R R1301
U 1 1 5E3B6544
P 1500 1200
F 0 "R1301" H 1570 1246 50  0000 L CNN
F 1 "R" H 1570 1155 50  0000 L CNN
F 2 "Resistors_SMD:R_0805" V 1430 1200 50  0001 C CNN
F 3 "~" H 1500 1200 50  0001 C CNN
F 4 "C17414" H 1500 1200 50  0001 C CNN "LCSC"
	1    1500 1200
	1    0    0    -1  
$EndComp
$Comp
L Device:R R1303
U 1 1 5E3B68FA
P 1750 1200
F 0 "R1303" H 1820 1246 50  0000 L CNN
F 1 "R" H 1820 1155 50  0000 L CNN
F 2 "Resistors_SMD:R_0805" V 1680 1200 50  0001 C CNN
F 3 "~" H 1750 1200 50  0001 C CNN
F 4 "C17414" H 1750 1200 50  0001 C CNN "LCSC"
	1    1750 1200
	1    0    0    -1  
$EndComp
$Comp
L Device:R R1305
U 1 1 5E3B816C
P 2000 1200
F 0 "R1305" H 2070 1246 50  0000 L CNN
F 1 "R" H 2070 1155 50  0000 L CNN
F 2 "Resistors_SMD:R_0805" V 1930 1200 50  0001 C CNN
F 3 "~" H 2000 1200 50  0001 C CNN
F 4 "C17414" H 2000 1200 50  0001 C CNN "LCSC"
	1    2000 1200
	1    0    0    -1  
$EndComp
$Comp
L Device:R R1307
U 1 1 5E3B8172
P 2250 1200
F 0 "R1307" H 2320 1246 50  0000 L CNN
F 1 "R" H 2320 1155 50  0000 L CNN
F 2 "Resistors_SMD:R_0805" V 2180 1200 50  0001 C CNN
F 3 "~" H 2250 1200 50  0001 C CNN
F 4 "C17414" H 2250 1200 50  0001 C CNN "LCSC"
	1    2250 1200
	1    0    0    -1  
$EndComp
$Comp
L Device:R R1309
U 1 1 5E3B86E0
P 2500 1200
F 0 "R1309" H 2570 1246 50  0000 L CNN
F 1 "R" H 2570 1155 50  0000 L CNN
F 2 "Resistors_SMD:R_0805" V 2430 1200 50  0001 C CNN
F 3 "~" H 2500 1200 50  0001 C CNN
F 4 "C17414" H 2500 1200 50  0001 C CNN "LCSC"
	1    2500 1200
	1    0    0    -1  
$EndComp
$Comp
L Device:R R1311
U 1 1 5E3B86E6
P 2750 1200
F 0 "R1311" H 2820 1246 50  0000 L CNN
F 1 "R" H 2820 1155 50  0000 L CNN
F 2 "Resistors_SMD:R_0805" V 2680 1200 50  0001 C CNN
F 3 "~" H 2750 1200 50  0001 C CNN
F 4 "C17414" H 2750 1200 50  0001 C CNN "LCSC"
	1    2750 1200
	1    0    0    -1  
$EndComp
$Comp
L Device:R R1313
U 1 1 5E3B8D26
P 3000 1200
F 0 "R1313" H 3070 1246 50  0000 L CNN
F 1 "R" H 3070 1155 50  0000 L CNN
F 2 "Resistors_SMD:R_0805" V 2930 1200 50  0001 C CNN
F 3 "~" H 3000 1200 50  0001 C CNN
F 4 "C17414" H 3000 1200 50  0001 C CNN "LCSC"
	1    3000 1200
	1    0    0    -1  
$EndComp
$Comp
L Device:R R1315
U 1 1 5E3B8D2C
P 3250 1200
F 0 "R1315" H 3320 1246 50  0000 L CNN
F 1 "R" H 3320 1155 50  0000 L CNN
F 2 "Resistors_SMD:R_0805" V 3180 1200 50  0001 C CNN
F 3 "~" H 3250 1200 50  0001 C CNN
F 4 "C17414" H 3250 1200 50  0001 C CNN "LCSC"
	1    3250 1200
	1    0    0    -1  
$EndComp
$Comp
L Device:R R1317
U 1 1 5E3B91B4
P 3500 1200
F 0 "R1317" H 3570 1246 50  0000 L CNN
F 1 "R" H 3570 1155 50  0000 L CNN
F 2 "Resistors_SMD:R_0805" V 3430 1200 50  0001 C CNN
F 3 "~" H 3500 1200 50  0001 C CNN
F 4 "C17414" H 3500 1200 50  0001 C CNN "LCSC"
	1    3500 1200
	1    0    0    -1  
$EndComp
$Comp
L Device:R R1319
U 1 1 5E3B91BA
P 3750 1200
F 0 "R1319" H 3820 1246 50  0000 L CNN
F 1 "R" H 3820 1155 50  0000 L CNN
F 2 "Resistors_SMD:R_0805" V 3680 1200 50  0001 C CNN
F 3 "~" H 3750 1200 50  0001 C CNN
F 4 "C17414" H 3750 1200 50  0001 C CNN "LCSC"
	1    3750 1200
	1    0    0    -1  
$EndComp
$Comp
L Device:R R1302
U 1 1 5E3BC084
P 1500 1800
F 0 "R1302" H 1570 1846 50  0000 L CNN
F 1 "R" H 1570 1755 50  0000 L CNN
F 2 "Resistors_SMD:R_0805" V 1430 1800 50  0001 C CNN
F 3 "~" H 1500 1800 50  0001 C CNN
F 4 "C17414" H 1500 1800 50  0001 C CNN "LCSC"
	1    1500 1800
	1    0    0    -1  
$EndComp
$Comp
L Device:R R1304
U 1 1 5E3BC08A
P 1750 1800
F 0 "R1304" H 1820 1846 50  0000 L CNN
F 1 "R" H 1820 1755 50  0000 L CNN
F 2 "Resistors_SMD:R_0805" V 1680 1800 50  0001 C CNN
F 3 "~" H 1750 1800 50  0001 C CNN
F 4 "C17414" H 1750 1800 50  0001 C CNN "LCSC"
	1    1750 1800
	1    0    0    -1  
$EndComp
$Comp
L Device:R R1306
U 1 1 5E3BC090
P 2000 1800
F 0 "R1306" H 2070 1846 50  0000 L CNN
F 1 "R" H 2070 1755 50  0000 L CNN
F 2 "Resistors_SMD:R_0805" V 1930 1800 50  0001 C CNN
F 3 "~" H 2000 1800 50  0001 C CNN
F 4 "C17414" H 2000 1800 50  0001 C CNN "LCSC"
	1    2000 1800
	1    0    0    -1  
$EndComp
$Comp
L Device:R R1308
U 1 1 5E3BC096
P 2250 1800
F 0 "R1308" H 2320 1846 50  0000 L CNN
F 1 "R" H 2320 1755 50  0000 L CNN
F 2 "Resistors_SMD:R_0805" V 2180 1800 50  0001 C CNN
F 3 "~" H 2250 1800 50  0001 C CNN
F 4 "C17414" H 2250 1800 50  0001 C CNN "LCSC"
	1    2250 1800
	1    0    0    -1  
$EndComp
$Comp
L Device:R R1310
U 1 1 5E3BC09C
P 2500 1800
F 0 "R1310" H 2570 1846 50  0000 L CNN
F 1 "R" H 2570 1755 50  0000 L CNN
F 2 "Resistors_SMD:R_0805" V 2430 1800 50  0001 C CNN
F 3 "~" H 2500 1800 50  0001 C CNN
F 4 "C17414" H 2500 1800 50  0001 C CNN "LCSC"
	1    2500 1800
	1    0    0    -1  
$EndComp
$Comp
L Device:R R1312
U 1 1 5E3BC0A2
P 2750 1800
F 0 "R1312" H 2820 1846 50  0000 L CNN
F 1 "R" H 2820 1755 50  0000 L CNN
F 2 "Resistors_SMD:R_0805" V 2680 1800 50  0001 C CNN
F 3 "~" H 2750 1800 50  0001 C CNN
F 4 "C17414" H 2750 1800 50  0001 C CNN "LCSC"
	1    2750 1800
	1    0    0    -1  
$EndComp
$Comp
L Device:R R1314
U 1 1 5E3BC0A8
P 3000 1800
F 0 "R1314" H 3070 1846 50  0000 L CNN
F 1 "R" H 3070 1755 50  0000 L CNN
F 2 "Resistors_SMD:R_0805" V 2930 1800 50  0001 C CNN
F 3 "~" H 3000 1800 50  0001 C CNN
F 4 "C17414" H 3000 1800 50  0001 C CNN "LCSC"
	1    3000 1800
	1    0    0    -1  
$EndComp
$Comp
L Device:R R1316
U 1 1 5E3BC0AE
P 3250 1800
F 0 "R1316" H 3320 1846 50  0000 L CNN
F 1 "R" H 3320 1755 50  0000 L CNN
F 2 "Resistors_SMD:R_0805" V 3180 1800 50  0001 C CNN
F 3 "~" H 3250 1800 50  0001 C CNN
F 4 "C17414" H 3250 1800 50  0001 C CNN "LCSC"
	1    3250 1800
	1    0    0    -1  
$EndComp
$Comp
L Device:R R1318
U 1 1 5E3BC0B4
P 3500 1800
F 0 "R1318" H 3570 1846 50  0000 L CNN
F 1 "R" H 3570 1755 50  0000 L CNN
F 2 "Resistors_SMD:R_0805" V 3430 1800 50  0001 C CNN
F 3 "~" H 3500 1800 50  0001 C CNN
F 4 "C17414" H 3500 1800 50  0001 C CNN "LCSC"
	1    3500 1800
	1    0    0    -1  
$EndComp
$Comp
L Device:R R1320
U 1 1 5E3BC0BA
P 3750 1800
F 0 "R1320" H 3820 1846 50  0000 L CNN
F 1 "R" H 3820 1755 50  0000 L CNN
F 2 "Resistors_SMD:R_0805" V 3680 1800 50  0001 C CNN
F 3 "~" H 3750 1800 50  0001 C CNN
F 4 "C17414" H 3750 1800 50  0001 C CNN "LCSC"
	1    3750 1800
	1    0    0    -1  
$EndComp
Wire Wire Line
	2250 1050 2250 1350
Text HLabel 2250 1050 1    50   Input ~ 0
COILn0
Wire Wire Line
	2750 1350 2750 1050
Text HLabel 2750 1050 1    50   Input ~ 0
COILn2
Wire Wire Line
	3250 1350 3250 1050
Text HLabel 3250 1050 1    50   Input ~ 0
COILn4
Wire Wire Line
	3750 1950 3750 1650
Text HLabel 3750 1950 3    50   Input ~ 0
COILn8
Wire Wire Line
	3500 1350 3500 1050
Text HLabel 3500 1050 1    50   Input ~ 0
COILn9
Wire Wire Line
	3000 1050 3000 1350
Text HLabel 3000 1050 1    50   Input ~ 0
COILn7
$EndSCHEMATC
