EESchema Schematic File Version 4
EELAYER 30 0
EELAYER END
$Descr A4 11693 8268
encoding utf-8
Sheet 4 14
Title ""
Date ""
Rev ""
Comp ""
Comment1 ""
Comment2 ""
Comment3 ""
Comment4 ""
$EndDescr
$Comp
L lbl_strips:pbv3 P1
U 1 1 5C020D61
P 5000 2700
AR Path="/5C020D45/5C020D61" Ref="P1"  Part="1" 
AR Path="/5C05860C/5C020D61" Ref="U?"  Part="1" 
AR Path="/5C05AC9E/5C020D61" Ref="U5"  Part="1" 
AR Path="/5C05D338/5C020D61" Ref="U7"  Part="1" 
AR Path="/5C05D354/5C020D61" Ref="U9"  Part="1" 
AR Path="/5C05F9F6/5C020D61" Ref="U11"  Part="1" 
AR Path="/5C0620A6/5C020D61" Ref="U13"  Part="1" 
AR Path="/5C0620C2/5C020D61" Ref="U15"  Part="1" 
AR Path="/5C0620DE/5C020D61" Ref="U17"  Part="1" 
AR Path="/5C0620FA/5C020D61" Ref="U19"  Part="1" 
AR Path="/5C062116/5C020D61" Ref="U21"  Part="1" 
AR Path="/5C07A225/5C020D61" Ref="U6"  Part="1" 
AR Path="/5C07D0CD/5C020D61" Ref="U8"  Part="1" 
AR Path="/5C081651/5C020D61" Ref="U10"  Part="1" 
AR Path="/5C085BD5/5C020D61" Ref="U12"  Part="1" 
AR Path="/5C08A1B0/5C020D61" Ref="U14"  Part="1" 
AR Path="/5C08A1C1/5C020D61" Ref="U16"  Part="1" 
AR Path="/5C08A1D2/5C020D61" Ref="U18"  Part="1" 
AR Path="/5C08A1E3/5C020D61" Ref="U20"  Part="1" 
AR Path="/5C08A1F4/5C020D61" Ref="U24"  Part="1" 
AR Path="/5C0C5B17/5C020D61" Ref="P0"  Part="1" 
AR Path="/5C0CA217/5C020D61" Ref="P3"  Part="1" 
AR Path="/5C0CA229/5C020D61" Ref="P2"  Part="1" 
AR Path="/5C0CE926/5C020D61" Ref="P5"  Part="1" 
AR Path="/5C0D3148/5C020D61" Ref="P4"  Part="1" 
AR Path="/5C0D315A/5C020D61" Ref="P7"  Part="1" 
AR Path="/5C0D316C/5C020D61" Ref="P6"  Part="1" 
AR Path="/5C0D317E/5C020D61" Ref="P9"  Part="1" 
AR Path="/5C0D3190/5C020D61" Ref="P8"  Part="1" 
F 0 "P0" H 5000 3387 60  0000 C CNN
F 1 "pbv3" H 5000 3281 60  0000 C CNN
F 2 "ECpowerboards:pbv3R2" H 6050 2100 60  0001 C CNN
F 3 "" H 6050 2100 60  0001 C CNN
	1    5000 2700
	1    0    0    -1  
$EndComp
$Comp
L 74xx:CD74HC4067M U2
U 1 1 5C032791
P 2100 1850
AR Path="/5C020D45/5C032791" Ref="U2"  Part="1" 
AR Path="/5C05860C/5C032791" Ref="U?"  Part="1" 
AR Path="/5C05AC9E/5C032791" Ref="U4"  Part="1" 
AR Path="/5C05D338/5C032791" Ref="U6"  Part="1" 
AR Path="/5C05D354/5C032791" Ref="U8"  Part="1" 
AR Path="/5C05F9F6/5C032791" Ref="U10"  Part="1" 
AR Path="/5C0620A6/5C032791" Ref="U12"  Part="1" 
AR Path="/5C0620C2/5C032791" Ref="U14"  Part="1" 
AR Path="/5C0620DE/5C032791" Ref="U16"  Part="1" 
AR Path="/5C0620FA/5C032791" Ref="U18"  Part="1" 
AR Path="/5C062116/5C032791" Ref="U20"  Part="1" 
AR Path="/5C07A225/5C032791" Ref="U5"  Part="1" 
AR Path="/5C07D0CD/5C032791" Ref="U7"  Part="1" 
AR Path="/5C081651/5C032791" Ref="U9"  Part="1" 
AR Path="/5C085BD5/5C032791" Ref="U11"  Part="1" 
AR Path="/5C08A1B0/5C032791" Ref="U13"  Part="1" 
AR Path="/5C08A1C1/5C032791" Ref="U15"  Part="1" 
AR Path="/5C08A1D2/5C032791" Ref="U17"  Part="1" 
AR Path="/5C08A1E3/5C032791" Ref="U19"  Part="1" 
AR Path="/5C08A1F4/5C032791" Ref="U21"  Part="1" 
AR Path="/5C0C5B17/5C032791" Ref="U5"  Part="1" 
AR Path="/5C0CA217/5C032791" Ref="U7"  Part="1" 
AR Path="/5C0CA229/5C032791" Ref="U9"  Part="1" 
AR Path="/5C0CE926/5C032791" Ref="U11"  Part="1" 
AR Path="/5C0D3148/5C032791" Ref="U13"  Part="1" 
AR Path="/5C0D315A/5C032791" Ref="U15"  Part="1" 
AR Path="/5C0D316C/5C032791" Ref="U17"  Part="1" 
AR Path="/5C0D317E/5C032791" Ref="U19"  Part="1" 
AR Path="/5C0D3190/5C032791" Ref="U21"  Part="1" 
F 0 "U5" H 1750 800 50  0000 C CNN
F 1 "CD74HC4067M" H 1700 2800 50  0000 C CNN
F 2 "Package_SO:SSOP-24_5.3x8.2mm_P0.65mm" H 3000 850 50  0001 C CIN
F 3 "http://www.ti.com/lit/ds/symlink/cd74hc4067.pdf" H 1750 2700 50  0001 C CNN
F 4 "C496123" H 2100 1850 50  0001 C CNN "LCSC"
	1    2100 1850
	1    0    0    -1  
$EndComp
$Comp
L power:+3V3 #PWR0101
U 1 1 5C03292F
P 2100 750
AR Path="/5C020D45/5C03292F" Ref="#PWR0101"  Part="1" 
AR Path="/5C05860C/5C03292F" Ref="#PWR?"  Part="1" 
AR Path="/5C05AC9E/5C03292F" Ref="#PWR0107"  Part="1" 
AR Path="/5C05D338/5C03292F" Ref="#PWR0113"  Part="1" 
AR Path="/5C05D354/5C03292F" Ref="#PWR0119"  Part="1" 
AR Path="/5C05F9F6/5C03292F" Ref="#PWR0125"  Part="1" 
AR Path="/5C0620A6/5C03292F" Ref="#PWR0131"  Part="1" 
AR Path="/5C0620C2/5C03292F" Ref="#PWR0137"  Part="1" 
AR Path="/5C0620DE/5C03292F" Ref="#PWR0143"  Part="1" 
AR Path="/5C0620FA/5C03292F" Ref="#PWR0149"  Part="1" 
AR Path="/5C062116/5C03292F" Ref="#PWR0155"  Part="1" 
AR Path="/5C07A225/5C03292F" Ref="#PWR09"  Part="1" 
AR Path="/5C07D0CD/5C03292F" Ref="#PWR015"  Part="1" 
AR Path="/5C081651/5C03292F" Ref="#PWR021"  Part="1" 
AR Path="/5C085BD5/5C03292F" Ref="#PWR027"  Part="1" 
AR Path="/5C08A1B0/5C03292F" Ref="#PWR033"  Part="1" 
AR Path="/5C08A1C1/5C03292F" Ref="#PWR039"  Part="1" 
AR Path="/5C08A1D2/5C03292F" Ref="#PWR045"  Part="1" 
AR Path="/5C08A1E3/5C03292F" Ref="#PWR051"  Part="1" 
AR Path="/5C08A1F4/5C03292F" Ref="#PWR057"  Part="1" 
AR Path="/5C0C5B17/5C03292F" Ref="#PWR0108"  Part="1" 
AR Path="/5C0CA217/5C03292F" Ref="#PWR0114"  Part="1" 
AR Path="/5C0CA229/5C03292F" Ref="#PWR0120"  Part="1" 
AR Path="/5C0CE926/5C03292F" Ref="#PWR0126"  Part="1" 
AR Path="/5C0D3148/5C03292F" Ref="#PWR0132"  Part="1" 
AR Path="/5C0D315A/5C03292F" Ref="#PWR0138"  Part="1" 
AR Path="/5C0D316C/5C03292F" Ref="#PWR0144"  Part="1" 
AR Path="/5C0D317E/5C03292F" Ref="#PWR0150"  Part="1" 
AR Path="/5C0D3190/5C03292F" Ref="#PWR0156"  Part="1" 
F 0 "#PWR0156" H 2100 600 50  0001 C CNN
F 1 "+3V3" H 2115 923 50  0000 C CNN
F 2 "" H 2100 750 50  0001 C CNN
F 3 "" H 2100 750 50  0001 C CNN
	1    2100 750 
	1    0    0    -1  
$EndComp
Wire Wire Line
	2100 850  2100 750 
$Comp
L power:+3V3 #PWR0102
U 1 1 5C03296B
P 800 800
AR Path="/5C020D45/5C03296B" Ref="#PWR0102"  Part="1" 
AR Path="/5C05860C/5C03296B" Ref="#PWR?"  Part="1" 
AR Path="/5C05AC9E/5C03296B" Ref="#PWR0108"  Part="1" 
AR Path="/5C05D338/5C03296B" Ref="#PWR0114"  Part="1" 
AR Path="/5C05D354/5C03296B" Ref="#PWR0120"  Part="1" 
AR Path="/5C05F9F6/5C03296B" Ref="#PWR0126"  Part="1" 
AR Path="/5C0620A6/5C03296B" Ref="#PWR0132"  Part="1" 
AR Path="/5C0620C2/5C03296B" Ref="#PWR0138"  Part="1" 
AR Path="/5C0620DE/5C03296B" Ref="#PWR0144"  Part="1" 
AR Path="/5C0620FA/5C03296B" Ref="#PWR0150"  Part="1" 
AR Path="/5C062116/5C03296B" Ref="#PWR0156"  Part="1" 
AR Path="/5C07A225/5C03296B" Ref="#PWR07"  Part="1" 
AR Path="/5C07D0CD/5C03296B" Ref="#PWR013"  Part="1" 
AR Path="/5C081651/5C03296B" Ref="#PWR019"  Part="1" 
AR Path="/5C085BD5/5C03296B" Ref="#PWR025"  Part="1" 
AR Path="/5C08A1B0/5C03296B" Ref="#PWR031"  Part="1" 
AR Path="/5C08A1C1/5C03296B" Ref="#PWR037"  Part="1" 
AR Path="/5C08A1D2/5C03296B" Ref="#PWR043"  Part="1" 
AR Path="/5C08A1E3/5C03296B" Ref="#PWR049"  Part="1" 
AR Path="/5C08A1F4/5C03296B" Ref="#PWR055"  Part="1" 
AR Path="/5C0C5B17/5C03296B" Ref="#PWR0109"  Part="1" 
AR Path="/5C0CA217/5C03296B" Ref="#PWR0115"  Part="1" 
AR Path="/5C0CA229/5C03296B" Ref="#PWR0121"  Part="1" 
AR Path="/5C0CE926/5C03296B" Ref="#PWR0127"  Part="1" 
AR Path="/5C0D3148/5C03296B" Ref="#PWR0133"  Part="1" 
AR Path="/5C0D315A/5C03296B" Ref="#PWR0139"  Part="1" 
AR Path="/5C0D316C/5C03296B" Ref="#PWR0145"  Part="1" 
AR Path="/5C0D317E/5C03296B" Ref="#PWR0151"  Part="1" 
AR Path="/5C0D3190/5C03296B" Ref="#PWR0157"  Part="1" 
F 0 "#PWR0157" H 800 650 50  0001 C CNN
F 1 "+3V3" H 815 973 50  0000 C CNN
F 2 "" H 800 800 50  0001 C CNN
F 3 "" H 800 800 50  0001 C CNN
	1    800  800 
	1    0    0    -1  
$EndComp
$Comp
L Device:C C1
U 1 1 5C0329A8
P 800 1000
AR Path="/5C020D45/5C0329A8" Ref="C1"  Part="1" 
AR Path="/5C05860C/5C0329A8" Ref="C?"  Part="1" 
AR Path="/5C05AC9E/5C0329A8" Ref="C2"  Part="1" 
AR Path="/5C05D338/5C0329A8" Ref="C3"  Part="1" 
AR Path="/5C05D354/5C0329A8" Ref="C4"  Part="1" 
AR Path="/5C05F9F6/5C0329A8" Ref="C5"  Part="1" 
AR Path="/5C0620A6/5C0329A8" Ref="C6"  Part="1" 
AR Path="/5C0620C2/5C0329A8" Ref="C7"  Part="1" 
AR Path="/5C0620DE/5C0329A8" Ref="C8"  Part="1" 
AR Path="/5C0620FA/5C0329A8" Ref="C9"  Part="1" 
AR Path="/5C062116/5C0329A8" Ref="C10"  Part="1" 
AR Path="/5C07A225/5C0329A8" Ref="C3"  Part="1" 
AR Path="/5C07D0CD/5C0329A8" Ref="C4"  Part="1" 
AR Path="/5C081651/5C0329A8" Ref="C5"  Part="1" 
AR Path="/5C085BD5/5C0329A8" Ref="C6"  Part="1" 
AR Path="/5C08A1B0/5C0329A8" Ref="C7"  Part="1" 
AR Path="/5C08A1C1/5C0329A8" Ref="C8"  Part="1" 
AR Path="/5C08A1D2/5C0329A8" Ref="C9"  Part="1" 
AR Path="/5C08A1E3/5C0329A8" Ref="C10"  Part="1" 
AR Path="/5C08A1F4/5C0329A8" Ref="C13"  Part="1" 
AR Path="/5C0C5B17/5C0329A8" Ref="C100"  Part="1" 
AR Path="/5C0CA217/5C0329A8" Ref="C4"  Part="1" 
AR Path="/5C0CA229/5C0329A8" Ref="C5"  Part="1" 
AR Path="/5C0CE926/5C0329A8" Ref="C6"  Part="1" 
AR Path="/5C0D3148/5C0329A8" Ref="C7"  Part="1" 
AR Path="/5C0D315A/5C0329A8" Ref="C8"  Part="1" 
AR Path="/5C0D316C/5C0329A8" Ref="C9"  Part="1" 
AR Path="/5C0D317E/5C0329A8" Ref="C10"  Part="1" 
AR Path="/5C0D3190/5C0329A8" Ref="C13"  Part="1" 
F 0 "C100" H 915 1046 50  0000 L CNN
F 1 "0.1uF" H 915 955 50  0000 L CNN
F 2 "Capacitor_SMD:C_0805_2012Metric" H 838 850 50  0001 C CNN
F 3 "http://www.yageo.com/documents/recent/UPY-GPHC_Y5V_6.3V-to-50V_8.pdf" H 800 1000 50  0001 C CNN
F 4 "C49678" H 800 1000 50  0001 C CNN "LCSC"
	1    800  1000
	1    0    0    -1  
$EndComp
Wire Wire Line
	800  850  800  800 
Wire Wire Line
	2100 3000 2100 2950
NoConn ~ 3900 2500
NoConn ~ 6100 2500
Text Label 2600 2050 0    50   ~ 0
LDx0EN
Text Label 2600 2150 0    50   ~ 0
HRSTBx
Text Label 2600 2350 0    50   ~ 0
LDx1EN
Text Label 2600 2450 0    50   ~ 0
LDx2EN
Text Label 2600 2550 0    50   ~ 0
SHUNTx
Text Label 2600 2650 0    50   ~ 0
CALx
Text Label 6100 2300 0    50   ~ 0
LDy0EN
Text Label 6100 2400 0    50   ~ 0
HRSTBy
Text Label 6100 3100 0    50   ~ 0
LDy1EN
Text Label 6100 3200 0    50   ~ 0
LDy2EN
Text Label 6100 3300 0    50   ~ 0
SHUNTy
Text Label 6100 3400 0    50   ~ 0
CALy
Text Label 2600 2250 0    50   ~ 0
VOUT
Text Label 2600 1950 0    50   ~ 0
OFout
Text Label 2600 1250 0    50   ~ 0
VCC3V3
Text Label 2600 1150 0    50   ~ 0
VCC1V4
Text Label 3900 2300 2    50   ~ 0
LDx0EN
Text Label 3900 2400 2    50   ~ 0
HRSTBx
Text Label 3900 3100 2    50   ~ 0
LDx1EN
Text Label 3900 3200 2    50   ~ 0
LDx2EN
Text Label 3900 3300 2    50   ~ 0
SHUNTx
Text Label 3900 3400 2    50   ~ 0
CALx
Text Label 3900 2800 2    50   ~ 0
ANALOGUE
Text Label 6100 2800 0    50   ~ 0
ANALOGUE
Text Label 5500 3950 3    50   ~ 0
OFout
Text Label 6100 2600 0    50   ~ 0
VOUT
Text Label 3900 2600 2    50   ~ 0
VOUT
Text Label 6100 3500 0    50   ~ 0
VCC3V3
Text Label 6100 3600 0    50   ~ 0
VCC1V4
Text Label 2600 1850 0    50   ~ 0
LDy0EN
Text Label 2600 1750 0    50   ~ 0
HRSTBy
Text Label 2600 1650 0    50   ~ 0
LDy1EN
Text Label 2600 1550 0    50   ~ 0
LDy2EN
Text Label 2600 1450 0    50   ~ 0
SHUNTy
Text Label 2600 1350 0    50   ~ 0
CALy
$Comp
L Device:R R4
U 1 1 5C033371
P 7900 1700
AR Path="/5C020D45/5C033371" Ref="R4"  Part="1" 
AR Path="/5C05860C/5C033371" Ref="R?"  Part="1" 
AR Path="/5C05AC9E/5C033371" Ref="R9"  Part="1" 
AR Path="/5C05D338/5C033371" Ref="R14"  Part="1" 
AR Path="/5C05D354/5C033371" Ref="R19"  Part="1" 
AR Path="/5C05F9F6/5C033371" Ref="R24"  Part="1" 
AR Path="/5C0620A6/5C033371" Ref="R29"  Part="1" 
AR Path="/5C0620C2/5C033371" Ref="R34"  Part="1" 
AR Path="/5C0620DE/5C033371" Ref="R39"  Part="1" 
AR Path="/5C0620FA/5C033371" Ref="R44"  Part="1" 
AR Path="/5C062116/5C033371" Ref="R49"  Part="1" 
AR Path="/5C07A225/5C033371" Ref="R9"  Part="1" 
AR Path="/5C07D0CD/5C033371" Ref="R14"  Part="1" 
AR Path="/5C081651/5C033371" Ref="R19"  Part="1" 
AR Path="/5C085BD5/5C033371" Ref="R24"  Part="1" 
AR Path="/5C08A1B0/5C033371" Ref="R29"  Part="1" 
AR Path="/5C08A1C1/5C033371" Ref="R34"  Part="1" 
AR Path="/5C08A1D2/5C033371" Ref="R39"  Part="1" 
AR Path="/5C08A1E3/5C033371" Ref="R44"  Part="1" 
AR Path="/5C08A1F4/5C033371" Ref="R49"  Part="1" 
AR Path="/5C0C5B17/5C033371" Ref="R9"  Part="1" 
AR Path="/5C0CA217/5C033371" Ref="R14"  Part="1" 
AR Path="/5C0CA229/5C033371" Ref="R19"  Part="1" 
AR Path="/5C0CE926/5C033371" Ref="R24"  Part="1" 
AR Path="/5C0D3148/5C033371" Ref="R29"  Part="1" 
AR Path="/5C0D315A/5C033371" Ref="R34"  Part="1" 
AR Path="/5C0D316C/5C033371" Ref="R39"  Part="1" 
AR Path="/5C0D317E/5C033371" Ref="R44"  Part="1" 
AR Path="/5C0D3190/5C033371" Ref="R49"  Part="1" 
F 0 "R9" H 7970 1746 50  0000 L CNN
F 1 "10k" H 7970 1655 50  0000 L CNN
F 2 "Resistor_SMD:R_0603_1608Metric" V 7830 1700 50  0001 C CNN
F 3 "https://www.murata.com/~/media/webrenewal/support/library/catalog/products/thermistor/r03e.ashx?la=en-us" H 7900 1700 50  0001 C CNN
F 4 "C76589" H 7900 1700 50  0001 C CNN "LCSC"
	1    7900 1700
	1    0    0    -1  
$EndComp
Text Label 3900 2900 2    50   ~ 0
NTCxP
Text Label 3900 3000 2    50   ~ 0
NTCxN
Text Label 6100 2900 0    50   ~ 0
NTCyP
Text Label 6100 3000 0    50   ~ 0
NTCyN
Text Label 7900 1500 2    50   ~ 0
NTCxP
Text Label 7900 1950 2    50   ~ 0
NTCxN
Wire Wire Line
	7900 1500 7900 1550
Wire Wire Line
	7900 1950 7900 1850
$Comp
L Device:R R5
U 1 1 5C0335FB
P 8450 1700
AR Path="/5C020D45/5C0335FB" Ref="R5"  Part="1" 
AR Path="/5C05860C/5C0335FB" Ref="R?"  Part="1" 
AR Path="/5C05AC9E/5C0335FB" Ref="R10"  Part="1" 
AR Path="/5C05D338/5C0335FB" Ref="R15"  Part="1" 
AR Path="/5C05D354/5C0335FB" Ref="R20"  Part="1" 
AR Path="/5C05F9F6/5C0335FB" Ref="R25"  Part="1" 
AR Path="/5C0620A6/5C0335FB" Ref="R30"  Part="1" 
AR Path="/5C0620C2/5C0335FB" Ref="R35"  Part="1" 
AR Path="/5C0620DE/5C0335FB" Ref="R40"  Part="1" 
AR Path="/5C0620FA/5C0335FB" Ref="R45"  Part="1" 
AR Path="/5C062116/5C0335FB" Ref="R50"  Part="1" 
AR Path="/5C07A225/5C0335FB" Ref="R10"  Part="1" 
AR Path="/5C07D0CD/5C0335FB" Ref="R15"  Part="1" 
AR Path="/5C081651/5C0335FB" Ref="R20"  Part="1" 
AR Path="/5C085BD5/5C0335FB" Ref="R25"  Part="1" 
AR Path="/5C08A1B0/5C0335FB" Ref="R30"  Part="1" 
AR Path="/5C08A1C1/5C0335FB" Ref="R35"  Part="1" 
AR Path="/5C08A1D2/5C0335FB" Ref="R40"  Part="1" 
AR Path="/5C08A1E3/5C0335FB" Ref="R45"  Part="1" 
AR Path="/5C08A1F4/5C0335FB" Ref="R50"  Part="1" 
AR Path="/5C0C5B17/5C0335FB" Ref="R10"  Part="1" 
AR Path="/5C0CA217/5C0335FB" Ref="R15"  Part="1" 
AR Path="/5C0CA229/5C0335FB" Ref="R20"  Part="1" 
AR Path="/5C0CE926/5C0335FB" Ref="R25"  Part="1" 
AR Path="/5C0D3148/5C0335FB" Ref="R30"  Part="1" 
AR Path="/5C0D315A/5C0335FB" Ref="R35"  Part="1" 
AR Path="/5C0D316C/5C0335FB" Ref="R40"  Part="1" 
AR Path="/5C0D317E/5C0335FB" Ref="R45"  Part="1" 
AR Path="/5C0D3190/5C0335FB" Ref="R50"  Part="1" 
F 0 "R10" H 8520 1746 50  0000 L CNN
F 1 "10k" H 8520 1655 50  0000 L CNN
F 2 "Resistor_SMD:R_0603_1608Metric" V 8380 1700 50  0001 C CNN
F 3 "https://www.murata.com/~/media/webrenewal/support/library/catalog/products/thermistor/r03e.ashx?la=en-us" H 8450 1700 50  0001 C CNN
	1    8450 1700
	1    0    0    -1  
$EndComp
Text Label 8450 1500 2    50   ~ 0
NTCyP
Text Label 8450 1950 2    50   ~ 0
NTCyN
Wire Wire Line
	8450 1500 8450 1550
Wire Wire Line
	8450 1950 8450 1850
Text Label 6100 2700 0    50   ~ 0
VOUT_RTN
Text Label 3900 2700 2    50   ~ 0
VOUT_RTN
$Comp
L power:GND #PWR0104
U 1 1 5C0473CF
P 4700 4050
AR Path="/5C020D45/5C0473CF" Ref="#PWR0104"  Part="1" 
AR Path="/5C05860C/5C0473CF" Ref="#PWR?"  Part="1" 
AR Path="/5C05AC9E/5C0473CF" Ref="#PWR0110"  Part="1" 
AR Path="/5C05D338/5C0473CF" Ref="#PWR0116"  Part="1" 
AR Path="/5C05D354/5C0473CF" Ref="#PWR0122"  Part="1" 
AR Path="/5C05F9F6/5C0473CF" Ref="#PWR0128"  Part="1" 
AR Path="/5C0620A6/5C0473CF" Ref="#PWR0134"  Part="1" 
AR Path="/5C0620C2/5C0473CF" Ref="#PWR0140"  Part="1" 
AR Path="/5C0620DE/5C0473CF" Ref="#PWR0146"  Part="1" 
AR Path="/5C0620FA/5C0473CF" Ref="#PWR0152"  Part="1" 
AR Path="/5C062116/5C0473CF" Ref="#PWR0158"  Part="1" 
AR Path="/5C07A225/5C0473CF" Ref="#PWR011"  Part="1" 
AR Path="/5C07D0CD/5C0473CF" Ref="#PWR017"  Part="1" 
AR Path="/5C081651/5C0473CF" Ref="#PWR023"  Part="1" 
AR Path="/5C085BD5/5C0473CF" Ref="#PWR029"  Part="1" 
AR Path="/5C08A1B0/5C0473CF" Ref="#PWR035"  Part="1" 
AR Path="/5C08A1C1/5C0473CF" Ref="#PWR041"  Part="1" 
AR Path="/5C08A1D2/5C0473CF" Ref="#PWR047"  Part="1" 
AR Path="/5C08A1E3/5C0473CF" Ref="#PWR053"  Part="1" 
AR Path="/5C08A1F4/5C0473CF" Ref="#PWR059"  Part="1" 
AR Path="/5C0C5B17/5C0473CF" Ref="#PWR0110"  Part="1" 
AR Path="/5C0CA217/5C0473CF" Ref="#PWR0116"  Part="1" 
AR Path="/5C0CA229/5C0473CF" Ref="#PWR0122"  Part="1" 
AR Path="/5C0CE926/5C0473CF" Ref="#PWR0128"  Part="1" 
AR Path="/5C0D3148/5C0473CF" Ref="#PWR0134"  Part="1" 
AR Path="/5C0D315A/5C0473CF" Ref="#PWR0140"  Part="1" 
AR Path="/5C0D316C/5C0473CF" Ref="#PWR0146"  Part="1" 
AR Path="/5C0D317E/5C0473CF" Ref="#PWR0152"  Part="1" 
AR Path="/5C0D3190/5C0473CF" Ref="#PWR0158"  Part="1" 
F 0 "#PWR0158" H 4700 3800 50  0001 C CNN
F 1 "GND" H 4705 3877 50  0000 C CNN
F 2 "" H 4700 4050 50  0001 C CNN
F 3 "" H 4700 4050 50  0001 C CNN
	1    4700 4050
	1    0    0    -1  
$EndComp
Wire Wire Line
	4700 4050 4700 3950
$Comp
L power:+12V #PWR0105
U 1 1 5C0474C4
P 4700 4650
AR Path="/5C020D45/5C0474C4" Ref="#PWR0105"  Part="1" 
AR Path="/5C05860C/5C0474C4" Ref="#PWR?"  Part="1" 
AR Path="/5C05AC9E/5C0474C4" Ref="#PWR0111"  Part="1" 
AR Path="/5C05D338/5C0474C4" Ref="#PWR0117"  Part="1" 
AR Path="/5C05D354/5C0474C4" Ref="#PWR0123"  Part="1" 
AR Path="/5C05F9F6/5C0474C4" Ref="#PWR0129"  Part="1" 
AR Path="/5C0620A6/5C0474C4" Ref="#PWR0135"  Part="1" 
AR Path="/5C0620C2/5C0474C4" Ref="#PWR0141"  Part="1" 
AR Path="/5C0620DE/5C0474C4" Ref="#PWR0147"  Part="1" 
AR Path="/5C0620FA/5C0474C4" Ref="#PWR0153"  Part="1" 
AR Path="/5C062116/5C0474C4" Ref="#PWR0159"  Part="1" 
AR Path="/5C07A225/5C0474C4" Ref="#PWR012"  Part="1" 
AR Path="/5C07D0CD/5C0474C4" Ref="#PWR018"  Part="1" 
AR Path="/5C081651/5C0474C4" Ref="#PWR024"  Part="1" 
AR Path="/5C085BD5/5C0474C4" Ref="#PWR030"  Part="1" 
AR Path="/5C08A1B0/5C0474C4" Ref="#PWR036"  Part="1" 
AR Path="/5C08A1C1/5C0474C4" Ref="#PWR042"  Part="1" 
AR Path="/5C08A1D2/5C0474C4" Ref="#PWR048"  Part="1" 
AR Path="/5C08A1E3/5C0474C4" Ref="#PWR054"  Part="1" 
AR Path="/5C08A1F4/5C0474C4" Ref="#PWR060"  Part="1" 
AR Path="/5C0C5B17/5C0474C4" Ref="#PWR0111"  Part="1" 
AR Path="/5C0CA217/5C0474C4" Ref="#PWR0117"  Part="1" 
AR Path="/5C0CA229/5C0474C4" Ref="#PWR0123"  Part="1" 
AR Path="/5C0CE926/5C0474C4" Ref="#PWR0129"  Part="1" 
AR Path="/5C0D3148/5C0474C4" Ref="#PWR0135"  Part="1" 
AR Path="/5C0D315A/5C0474C4" Ref="#PWR0141"  Part="1" 
AR Path="/5C0D316C/5C0474C4" Ref="#PWR0147"  Part="1" 
AR Path="/5C0D317E/5C0474C4" Ref="#PWR0153"  Part="1" 
AR Path="/5C0D3190/5C0474C4" Ref="#PWR0159"  Part="1" 
F 0 "#PWR0159" H 4700 4500 50  0001 C CNN
F 1 "+12V" H 4650 4800 50  0000 C CNN
F 2 "" H 4700 4650 50  0001 C CNN
F 3 "" H 4700 4650 50  0001 C CNN
	1    4700 4650
	1    0    0    -1  
$EndComp
Wire Wire Line
	4800 4650 4700 4650
Wire Wire Line
	4500 3950 4500 4050
Wire Wire Line
	4600 3950 4600 4150
$Comp
L Device:R R3
U 1 1 5C04786B
P 5400 4350
AR Path="/5C020D45/5C04786B" Ref="R3"  Part="1" 
AR Path="/5C05860C/5C04786B" Ref="R?"  Part="1" 
AR Path="/5C05AC9E/5C04786B" Ref="R8"  Part="1" 
AR Path="/5C05D338/5C04786B" Ref="R13"  Part="1" 
AR Path="/5C05D354/5C04786B" Ref="R18"  Part="1" 
AR Path="/5C05F9F6/5C04786B" Ref="R23"  Part="1" 
AR Path="/5C0620A6/5C04786B" Ref="R28"  Part="1" 
AR Path="/5C0620C2/5C04786B" Ref="R33"  Part="1" 
AR Path="/5C0620DE/5C04786B" Ref="R38"  Part="1" 
AR Path="/5C0620FA/5C04786B" Ref="R43"  Part="1" 
AR Path="/5C062116/5C04786B" Ref="R48"  Part="1" 
AR Path="/5C07A225/5C04786B" Ref="R8"  Part="1" 
AR Path="/5C07D0CD/5C04786B" Ref="R13"  Part="1" 
AR Path="/5C081651/5C04786B" Ref="R18"  Part="1" 
AR Path="/5C085BD5/5C04786B" Ref="R23"  Part="1" 
AR Path="/5C08A1B0/5C04786B" Ref="R28"  Part="1" 
AR Path="/5C08A1C1/5C04786B" Ref="R33"  Part="1" 
AR Path="/5C08A1D2/5C04786B" Ref="R38"  Part="1" 
AR Path="/5C08A1E3/5C04786B" Ref="R43"  Part="1" 
AR Path="/5C08A1F4/5C04786B" Ref="R48"  Part="1" 
AR Path="/5C0C5B17/5C04786B" Ref="R8"  Part="1" 
AR Path="/5C0CA217/5C04786B" Ref="R13"  Part="1" 
AR Path="/5C0CA229/5C04786B" Ref="R18"  Part="1" 
AR Path="/5C0CE926/5C04786B" Ref="R23"  Part="1" 
AR Path="/5C0D3148/5C04786B" Ref="R28"  Part="1" 
AR Path="/5C0D315A/5C04786B" Ref="R33"  Part="1" 
AR Path="/5C0D316C/5C04786B" Ref="R38"  Part="1" 
AR Path="/5C0D317E/5C04786B" Ref="R43"  Part="1" 
AR Path="/5C0D3190/5C04786B" Ref="R48"  Part="1" 
F 0 "R8" H 5470 4396 50  0000 L CNN
F 1 "20k" H 5470 4305 50  0000 L CNN
F 2 "Resistor_SMD:R_0805_2012Metric" V 5330 4350 50  0001 C CNN
F 3 "~" H 5400 4350 50  0001 C CNN
F 4 "CRG0805F20K" H 5400 4350 50  0001 C CNN "mfg#"
F 5 "C4328" H 5400 4350 50  0001 C CNN "LCSC"
	1    5400 4350
	1    0    0    -1  
$EndComp
Wire Wire Line
	5400 4200 5400 3950
Wire Wire Line
	5400 4500 5400 4600
NoConn ~ 6100 3700
Wire Wire Line
	4150 4350 4150 4450
$Comp
L Device:R R1
U 1 1 5C048E86
P 4150 4200
AR Path="/5C020D45/5C048E86" Ref="R1"  Part="1" 
AR Path="/5C05860C/5C048E86" Ref="R?"  Part="1" 
AR Path="/5C05AC9E/5C048E86" Ref="R6"  Part="1" 
AR Path="/5C05D338/5C048E86" Ref="R11"  Part="1" 
AR Path="/5C05D354/5C048E86" Ref="R16"  Part="1" 
AR Path="/5C05F9F6/5C048E86" Ref="R21"  Part="1" 
AR Path="/5C0620A6/5C048E86" Ref="R26"  Part="1" 
AR Path="/5C0620C2/5C048E86" Ref="R31"  Part="1" 
AR Path="/5C0620DE/5C048E86" Ref="R36"  Part="1" 
AR Path="/5C0620FA/5C048E86" Ref="R41"  Part="1" 
AR Path="/5C062116/5C048E86" Ref="R46"  Part="1" 
AR Path="/5C07A225/5C048E86" Ref="R6"  Part="1" 
AR Path="/5C07D0CD/5C048E86" Ref="R11"  Part="1" 
AR Path="/5C081651/5C048E86" Ref="R16"  Part="1" 
AR Path="/5C085BD5/5C048E86" Ref="R21"  Part="1" 
AR Path="/5C08A1B0/5C048E86" Ref="R26"  Part="1" 
AR Path="/5C08A1C1/5C048E86" Ref="R31"  Part="1" 
AR Path="/5C08A1D2/5C048E86" Ref="R36"  Part="1" 
AR Path="/5C08A1E3/5C048E86" Ref="R41"  Part="1" 
AR Path="/5C08A1F4/5C048E86" Ref="R46"  Part="1" 
AR Path="/5C0C5B17/5C048E86" Ref="R6"  Part="1" 
AR Path="/5C0CA217/5C048E86" Ref="R11"  Part="1" 
AR Path="/5C0CA229/5C048E86" Ref="R16"  Part="1" 
AR Path="/5C0CE926/5C048E86" Ref="R21"  Part="1" 
AR Path="/5C0D3148/5C048E86" Ref="R26"  Part="1" 
AR Path="/5C0D315A/5C048E86" Ref="R31"  Part="1" 
AR Path="/5C0D316C/5C048E86" Ref="R36"  Part="1" 
AR Path="/5C0D317E/5C048E86" Ref="R41"  Part="1" 
AR Path="/5C0D3190/5C048E86" Ref="R46"  Part="1" 
F 0 "R6" H 4220 4246 50  0000 L CNN
F 1 "249k" H 4220 4155 50  0000 L CNN
F 2 "Resistor_SMD:R_0805_2012Metric" V 4080 4200 50  0001 C CNN
F 3 "~" H 4150 4200 50  0001 C CNN
F 4 "ERA-6AEB2493V" H 4150 4200 50  0001 C CNN "mfg#"
F 5 "C25825" H 4150 4200 50  0001 C CNN "LCSC"
	1    4150 4200
	1    0    0    -1  
$EndComp
$Comp
L Device:R R2
U 1 1 5C048EE9
P 4150 4600
AR Path="/5C020D45/5C048EE9" Ref="R2"  Part="1" 
AR Path="/5C05860C/5C048EE9" Ref="R?"  Part="1" 
AR Path="/5C05AC9E/5C048EE9" Ref="R7"  Part="1" 
AR Path="/5C05D338/5C048EE9" Ref="R12"  Part="1" 
AR Path="/5C05D354/5C048EE9" Ref="R17"  Part="1" 
AR Path="/5C05F9F6/5C048EE9" Ref="R22"  Part="1" 
AR Path="/5C0620A6/5C048EE9" Ref="R27"  Part="1" 
AR Path="/5C0620C2/5C048EE9" Ref="R32"  Part="1" 
AR Path="/5C0620DE/5C048EE9" Ref="R37"  Part="1" 
AR Path="/5C0620FA/5C048EE9" Ref="R42"  Part="1" 
AR Path="/5C062116/5C048EE9" Ref="R47"  Part="1" 
AR Path="/5C07A225/5C048EE9" Ref="R7"  Part="1" 
AR Path="/5C07D0CD/5C048EE9" Ref="R12"  Part="1" 
AR Path="/5C081651/5C048EE9" Ref="R17"  Part="1" 
AR Path="/5C085BD5/5C048EE9" Ref="R22"  Part="1" 
AR Path="/5C08A1B0/5C048EE9" Ref="R27"  Part="1" 
AR Path="/5C08A1C1/5C048EE9" Ref="R32"  Part="1" 
AR Path="/5C08A1D2/5C048EE9" Ref="R37"  Part="1" 
AR Path="/5C08A1E3/5C048EE9" Ref="R42"  Part="1" 
AR Path="/5C08A1F4/5C048EE9" Ref="R47"  Part="1" 
AR Path="/5C0C5B17/5C048EE9" Ref="R7"  Part="1" 
AR Path="/5C0CA217/5C048EE9" Ref="R12"  Part="1" 
AR Path="/5C0CA229/5C048EE9" Ref="R17"  Part="1" 
AR Path="/5C0CE926/5C048EE9" Ref="R22"  Part="1" 
AR Path="/5C0D3148/5C048EE9" Ref="R27"  Part="1" 
AR Path="/5C0D315A/5C048EE9" Ref="R32"  Part="1" 
AR Path="/5C0D316C/5C048EE9" Ref="R37"  Part="1" 
AR Path="/5C0D317E/5C048EE9" Ref="R42"  Part="1" 
AR Path="/5C0D3190/5C048EE9" Ref="R47"  Part="1" 
F 0 "R7" H 4220 4646 50  0000 L CNN
F 1 "249k" H 4220 4555 50  0000 L CNN
F 2 "Resistor_SMD:R_0805_2012Metric" V 4080 4600 50  0001 C CNN
F 3 "~" H 4150 4600 50  0001 C CNN
F 4 "C25825" H 4150 4600 50  0001 C CNN "LCSC"
	1    4150 4600
	1    0    0    -1  
$EndComp
Wire Wire Line
	4150 4850 4150 4750
Wire Wire Line
	4150 4050 4500 4050
Text HLabel 1600 1350 0    50   Output ~ 0
OUT
Text HLabel 1100 1600 0    50   Input ~ 0
OUT_SEL[0..3]
Text HLabel 1600 2450 0    50   Input ~ 0
OUT_EN
Entry Wire Line
	1100 1650 1200 1750
Entry Wire Line
	1100 1750 1200 1850
Entry Wire Line
	1100 1850 1200 1950
Entry Wire Line
	1100 1950 1200 2050
Text Label 1200 2050 0    50   ~ 0
OUT_SEL3
Text Label 1200 1950 0    50   ~ 0
OUT_SEL2
Text Label 1200 1850 0    50   ~ 0
OUT_SEL1
Text Label 1200 1750 0    50   ~ 0
OUT_SEL0
Wire Wire Line
	1200 1750 1600 1750
Wire Wire Line
	1600 1850 1200 1850
Wire Wire Line
	1200 1950 1600 1950
Wire Wire Line
	1600 2050 1200 2050
Text HLabel 4900 3950 3    50   Input ~ 0
CMDin_N
Text HLabel 5000 3950 3    50   Input ~ 0
CMDin_P
Text HLabel 5100 3950 3    50   Output ~ 0
CMDout_P
Text HLabel 5200 3950 3    50   Output ~ 0
CMDout_N
Text HLabel 1200 3850 0    50   Input ~ 0
ANALOGUE
Text Label 5300 3950 3    50   ~ 0
ANALOGUE
Text HLabel 1200 3650 0    50   Output ~ 0
VOUT
Text HLabel 1200 3750 0    50   Input ~ 0
VOUT_RTN
Text HLabel 4150 4850 3    50   Output ~ 0
HVout
Text HLabel 3900 3700 0    50   Input ~ 0
HVret
Text HLabel 4600 4150 3    50   Input ~ 0
HVin
Wire Wire Line
	4800 3950 4800 4650
$Comp
L power:GNDPWR #PWR0106
U 1 1 5C01898C
P 2100 3000
AR Path="/5C020D45/5C01898C" Ref="#PWR0106"  Part="1" 
AR Path="/5C05AC9E/5C01898C" Ref="#PWR0112"  Part="1" 
AR Path="/5C05D338/5C01898C" Ref="#PWR0118"  Part="1" 
AR Path="/5C05D354/5C01898C" Ref="#PWR0124"  Part="1" 
AR Path="/5C05F9F6/5C01898C" Ref="#PWR0130"  Part="1" 
AR Path="/5C0620A6/5C01898C" Ref="#PWR0136"  Part="1" 
AR Path="/5C0620C2/5C01898C" Ref="#PWR0142"  Part="1" 
AR Path="/5C0620DE/5C01898C" Ref="#PWR0148"  Part="1" 
AR Path="/5C0620FA/5C01898C" Ref="#PWR0154"  Part="1" 
AR Path="/5C062116/5C01898C" Ref="#PWR0160"  Part="1" 
AR Path="/5C07A225/5C01898C" Ref="#PWR010"  Part="1" 
AR Path="/5C07D0CD/5C01898C" Ref="#PWR016"  Part="1" 
AR Path="/5C081651/5C01898C" Ref="#PWR022"  Part="1" 
AR Path="/5C085BD5/5C01898C" Ref="#PWR028"  Part="1" 
AR Path="/5C08A1B0/5C01898C" Ref="#PWR034"  Part="1" 
AR Path="/5C08A1C1/5C01898C" Ref="#PWR040"  Part="1" 
AR Path="/5C08A1D2/5C01898C" Ref="#PWR046"  Part="1" 
AR Path="/5C08A1E3/5C01898C" Ref="#PWR052"  Part="1" 
AR Path="/5C08A1F4/5C01898C" Ref="#PWR058"  Part="1" 
AR Path="/5C0C5B17/5C01898C" Ref="#PWR0112"  Part="1" 
AR Path="/5C0CA217/5C01898C" Ref="#PWR0118"  Part="1" 
AR Path="/5C0CA229/5C01898C" Ref="#PWR0124"  Part="1" 
AR Path="/5C0CE926/5C01898C" Ref="#PWR0130"  Part="1" 
AR Path="/5C0D3148/5C01898C" Ref="#PWR0136"  Part="1" 
AR Path="/5C0D315A/5C01898C" Ref="#PWR0142"  Part="1" 
AR Path="/5C0D316C/5C01898C" Ref="#PWR0148"  Part="1" 
AR Path="/5C0D317E/5C01898C" Ref="#PWR0154"  Part="1" 
AR Path="/5C0D3190/5C01898C" Ref="#PWR0160"  Part="1" 
F 0 "#PWR0160" H 2100 2800 50  0001 C CNN
F 1 "GNDPWR" H 2104 2846 50  0000 C CNN
F 2 "" H 2100 2950 50  0001 C CNN
F 3 "" H 2100 2950 50  0001 C CNN
	1    2100 3000
	1    0    0    -1  
$EndComp
$Comp
L power:GNDPWR #PWR0103
U 1 1 5C036AE0
P 800 1200
AR Path="/5C020D45/5C036AE0" Ref="#PWR0103"  Part="1" 
AR Path="/5C05AC9E/5C036AE0" Ref="#PWR0109"  Part="1" 
AR Path="/5C05D338/5C036AE0" Ref="#PWR0115"  Part="1" 
AR Path="/5C05D354/5C036AE0" Ref="#PWR0121"  Part="1" 
AR Path="/5C05F9F6/5C036AE0" Ref="#PWR0127"  Part="1" 
AR Path="/5C0620A6/5C036AE0" Ref="#PWR0133"  Part="1" 
AR Path="/5C0620C2/5C036AE0" Ref="#PWR0139"  Part="1" 
AR Path="/5C0620DE/5C036AE0" Ref="#PWR0145"  Part="1" 
AR Path="/5C0620FA/5C036AE0" Ref="#PWR0151"  Part="1" 
AR Path="/5C062116/5C036AE0" Ref="#PWR0157"  Part="1" 
AR Path="/5C07A225/5C036AE0" Ref="#PWR08"  Part="1" 
AR Path="/5C07D0CD/5C036AE0" Ref="#PWR014"  Part="1" 
AR Path="/5C081651/5C036AE0" Ref="#PWR020"  Part="1" 
AR Path="/5C085BD5/5C036AE0" Ref="#PWR026"  Part="1" 
AR Path="/5C08A1B0/5C036AE0" Ref="#PWR032"  Part="1" 
AR Path="/5C08A1C1/5C036AE0" Ref="#PWR038"  Part="1" 
AR Path="/5C08A1D2/5C036AE0" Ref="#PWR044"  Part="1" 
AR Path="/5C08A1E3/5C036AE0" Ref="#PWR050"  Part="1" 
AR Path="/5C08A1F4/5C036AE0" Ref="#PWR056"  Part="1" 
AR Path="/5C0C5B17/5C036AE0" Ref="#PWR0113"  Part="1" 
AR Path="/5C0CA217/5C036AE0" Ref="#PWR0119"  Part="1" 
AR Path="/5C0CA229/5C036AE0" Ref="#PWR0125"  Part="1" 
AR Path="/5C0CE926/5C036AE0" Ref="#PWR0131"  Part="1" 
AR Path="/5C0D3148/5C036AE0" Ref="#PWR0137"  Part="1" 
AR Path="/5C0D315A/5C036AE0" Ref="#PWR0143"  Part="1" 
AR Path="/5C0D316C/5C036AE0" Ref="#PWR0149"  Part="1" 
AR Path="/5C0D317E/5C036AE0" Ref="#PWR0155"  Part="1" 
AR Path="/5C0D3190/5C036AE0" Ref="#PWR0174"  Part="1" 
F 0 "#PWR0174" H 800 1000 50  0001 C CNN
F 1 "GNDPWR" H 804 1046 50  0000 C CNN
F 2 "" H 800 1150 50  0001 C CNN
F 3 "" H 800 1150 50  0001 C CNN
	1    800  1200
	1    0    0    -1  
$EndComp
Text HLabel 1200 4100 0    50   Input ~ 0
COILp
Text HLabel 1200 4200 0    50   Output ~ 0
COILn
Wire Wire Line
	1200 4100 1250 4100
Wire Wire Line
	1250 4100 1250 4200
Wire Wire Line
	1250 4200 1200 4200
Text HLabel 5400 4600 0    50   Input ~ 0
OFin
Wire Wire Line
	800  1150 800  1200
Text Label 4500 4000 2    50   ~ 0
HVout_high
Wire Bus Line
	1100 1600 1100 1950
$EndSCHEMATC
