EESchema Schematic File Version 4
EELAYER 30 0
EELAYER END
$Descr A4 11693 8268
encoding utf-8
Sheet 1 14
Title ""
Date ""
Rev ""
Comp ""
Comment1 ""
Comment2 ""
Comment3 ""
Comment4 ""
$EndDescr
NoConn ~ 7900 900 
Text Label 7900 800  2    50   ~ 0
HVIN_RTN
Text Label 7900 1800 2    50   ~ 0
VOUT0
Text Label 7900 1400 2    50   ~ 0
VOUT_RTN0
Text Label 7900 2200 2    50   ~ 0
VOUT1
Text Label 7900 3400 2    50   ~ 0
VOUT2
Text Label 7900 3800 2    50   ~ 0
VOUT3
Text Label 7900 5000 2    50   ~ 0
VOUT4
Text Label 7900 5400 2    50   ~ 0
VOUT5
Text Label 7900 2600 2    50   ~ 0
VOUT_RTN1
Text Label 7900 3000 2    50   ~ 0
VOUT_RTN2
Text Label 7900 4200 2    50   ~ 0
VOUT_RTN3
Text Label 7900 4600 2    50   ~ 0
VOUT_RTN4
Text Label 9900 800  2    50   ~ 0
VOUT_RTN5
Text Label 9900 1600 2    50   ~ 0
VOUT6
Text Label 9900 2000 2    50   ~ 0
VOUT7
Text Label 9900 3200 2    50   ~ 0
VOUT8
Text Label 9900 3600 2    50   ~ 0
VOUT9
Text Label 9900 1200 2    50   ~ 0
VOUT_RTN6
Text Label 9900 2400 2    50   ~ 0
VOUT_RTN7
Text Label 9900 2800 2    50   ~ 0
VOUT_RTN8
Text Label 9900 4000 2    50   ~ 0
VOUT_RTN9
Text Label 8600 900  0    50   ~ 0
HVIN
NoConn ~ 8600 1000
NoConn ~ 8600 1100
Text Label 8600 1600 0    50   ~ 0
CMDin0_P
Text Label 8600 3200 0    50   ~ 0
CMDin2_P
Text Label 8600 4000 0    50   ~ 0
CMDin3_P
Text Label 8600 4800 0    50   ~ 0
CMDin4_P
Text Label 8600 5600 0    50   ~ 0
CMDin5_P
Text Label 10600 1400 0    50   ~ 0
CMDin6_P
Text Label 10600 2200 0    50   ~ 0
CMDin7_P
Text Label 10600 3000 0    50   ~ 0
CMDin8_P
Text Label 10600 3800 0    50   ~ 0
CMDin9_P
Text Label 8600 1700 0    50   ~ 0
CMDin0_N
Text Label 8600 3300 0    50   ~ 0
CMDin2_N
Text Label 8600 4100 0    50   ~ 0
CMDin3_N
Text Label 8600 4900 0    50   ~ 0
CMDin4_N
Text Label 8600 5700 0    50   ~ 0
CMDin5_N
Text Label 10600 1500 0    50   ~ 0
CMDin6_N
Text Label 10600 2300 0    50   ~ 0
CMDin7_N
Text Label 10600 3100 0    50   ~ 0
CMDin8_N
Text Label 10600 3900 0    50   ~ 0
CMDin9_N
Text Label 8600 1800 0    50   ~ 0
CMDout0_P
Text Label 8600 3400 0    50   ~ 0
CMDout2_P
Text Label 8600 4200 0    50   ~ 0
CMDout3_P
Text Label 8600 5000 0    50   ~ 0
CMDout4_P
Text Label 10600 800  0    50   ~ 0
CMDout5_P
Text Label 10600 1600 0    50   ~ 0
CMDout6_P
Text Label 10600 2400 0    50   ~ 0
CMDout7_P
Text Label 10600 3200 0    50   ~ 0
CMDout8_P
Text Label 10600 4000 0    50   ~ 0
CMDout9_P
Text Label 8600 1900 0    50   ~ 0
CMDout0_N
Text Label 8600 3500 0    50   ~ 0
CMDout2_N
Text Label 8600 4300 0    50   ~ 0
CMDout3_N
Text Label 8600 5100 0    50   ~ 0
CMDout4_N
Text Label 10600 900  0    50   ~ 0
CMDout5_N
Text Label 10600 1700 0    50   ~ 0
CMDout6_N
Text Label 10600 2500 0    50   ~ 0
CMDout7_N
Text Label 10600 3300 0    50   ~ 0
CMDout8_N
Text Label 10600 4100 0    50   ~ 0
CMDout9_N
Text Label 8600 2100 0    50   ~ 0
HVOUT0
Text Label 8600 3700 0    50   ~ 0
HVOUT2
Text Label 8600 4500 0    50   ~ 0
HVOUT3
Text Label 8600 5300 0    50   ~ 0
HVOUT4
Text Label 10600 1100 0    50   ~ 0
HVOUT5
Text Label 10600 1900 0    50   ~ 0
HVOUT6
Text Label 10600 2700 0    50   ~ 0
HVOUT7
Text Label 10600 3500 0    50   ~ 0
HVOUT8
Text Label 10600 4300 0    50   ~ 0
HVOUT9
Text Label 8600 2000 0    50   ~ 0
HVOUT_RTN0
Text Label 8600 3600 0    50   ~ 0
HVOUT_RTN2
Text Label 8600 4400 0    50   ~ 0
HVOUT_RTN3
Text Label 8600 5200 0    50   ~ 0
HVOUT_RTN4
Text Label 10600 1000 0    50   ~ 0
HVOUT_RTN5
Text Label 10600 1800 0    50   ~ 0
HVOUT_RTN6
Text Label 10600 2600 0    50   ~ 0
HVOUT_RTN7
Text Label 10600 3400 0    50   ~ 0
HVOUT_RTN8
Text Label 10600 4200 0    50   ~ 0
HVOUT_RTN9
Text Label 8600 2200 0    50   ~ 0
COILp0
Text Label 8600 3800 0    50   ~ 0
COILp2
Text Label 8600 4600 0    50   ~ 0
COILp3
Text Label 8600 5400 0    50   ~ 0
COILp4
Text Label 10600 1200 0    50   ~ 0
COILp5
Text Label 10600 2000 0    50   ~ 0
COILp6
Text Label 10600 2800 0    50   ~ 0
COILp7
Text Label 10600 3600 0    50   ~ 0
COILp8
Text Label 10600 4400 0    50   ~ 0
COILp9
Text Label 8600 2300 0    50   ~ 0
COILn0
Text Label 8600 3900 0    50   ~ 0
COILn2
Text Label 8600 4700 0    50   ~ 0
COILn3
Text Label 8600 5500 0    50   ~ 0
COILn4
Text Label 10600 1300 0    50   ~ 0
COILn5
Text Label 10600 2100 0    50   ~ 0
COILn6
Text Label 10600 2900 0    50   ~ 0
COILn7
Text Label 10600 3700 0    50   ~ 0
COILn8
Text Label 10600 4500 0    50   ~ 0
COILn9
Text Label 9900 5100 2    50   ~ 0
VIN
Text Label 9900 5200 2    50   ~ 0
VIN_RTN
Text Label 7900 1000 2    50   ~ 0
I2C_SCL
Text Label 7900 1100 2    50   ~ 0
I2C_SDA
Text Label 9900 4400 2    50   ~ 0
3V3
Text Label 7900 1200 2    50   ~ 0
OUT
Text Label 8600 1400 0    50   ~ 0
ANALOGUE
$Comp
L lbl_conn:Conn_02x100_Row_Letter_First-lbl_conn U1
U 1 1 5C008869
P 8250 2200
F 0 "U1" H 8250 3865 50  0000 C CNN
F 1 "Conn_02x100_Row_Letter_First-lbl_conn" H 8250 -1450 50  0000 C CNN
F 2 "lbl_strips:Sullins_EdgeCard_CardSide_200_pbv3_carrier" H 7050 2200 50  0001 C CNN
F 3 "" H 7050 2200 50  0001 C CNN
	1    8250 2200
	1    0    0    -1  
$EndComp
$Sheet
S 1050 2000 1050 1250
U 5C020D45
F0 "PB1" 50
F1 "Powerboard.sch" 50
F2 "OUT" O R 2100 2650 50 
F3 "OUT_SEL[0..3]" I L 1050 3150 50 
F4 "OUT_EN" I L 1050 3050 50 
F5 "CMDin_N" I L 1050 2350 50 
F6 "CMDin_P" I L 1050 2250 50 
F7 "CMDout_P" O L 1050 2450 50 
F8 "CMDout_N" O L 1050 2550 50 
F9 "ANALOGUE" I L 1050 2850 50 
F10 "VOUT" O R 2100 2100 50 
F11 "VOUT_RTN" I R 2100 2200 50 
F12 "HVout" O R 2100 2400 50 
F13 "HVret" I R 2100 2500 50 
F14 "HVin" I L 1050 2100 50 
F15 "COILp" I R 2100 2850 50 
F16 "COILn" O R 2100 2950 50 
F17 "OFin" I L 1050 2700 50 
$EndSheet
Text Label 7900 1300 2    50   ~ 0
OUT_RTN
Text Label 2150 700  0    50   ~ 0
VOUT0
Text Label 2150 800  0    50   ~ 0
VOUT_RTN0
Text Label 2150 1000 0    50   ~ 0
HVOUT0
Text Label 2150 1100 0    50   ~ 0
HVOUT_RTN0
Text Label 2150 1250 0    50   ~ 0
OUT
Text Label 1000 700  2    50   ~ 0
HVIN
Text Label 1000 850  2    50   ~ 0
CMDin0_P
Text Label 1000 950  2    50   ~ 0
CMDin0_N
Text Label 1000 1050 2    50   ~ 0
CMDout0_P
Text Label 1000 1150 2    50   ~ 0
CMDout0_N
Text Label 1000 1450 2    50   ~ 0
ANALOGUE
Text Label 1000 1650 2    50   ~ 0
OUT_EN0
Text Label 1000 1750 2    50   ~ 0
OUT_SEL[0..3]
Text Label 2150 2100 0    50   ~ 0
VOUT1
Text Label 2150 2200 0    50   ~ 0
VOUT_RTN1
Text Label 2150 2400 0    50   ~ 0
HVOUT1
Text Label 2150 2500 0    50   ~ 0
HVOUT_RTN1
Text Label 2150 2650 0    50   ~ 0
OUT
Text Label 1000 2100 2    50   ~ 0
HVIN
Text Label 1000 2250 2    50   ~ 0
CMDin1_P
Text Label 1000 2350 2    50   ~ 0
CMDin1_N
Text Label 1000 2450 2    50   ~ 0
CMDout1_P
Text Label 1000 2550 2    50   ~ 0
CMDout1_N
Text Label 1000 2850 2    50   ~ 0
ANALOGUE
Text Label 1000 3050 2    50   ~ 0
OUT_EN1
Text Label 1000 3150 2    50   ~ 0
OUT_SEL[0..3]
Text Label 2150 3500 0    50   ~ 0
VOUT2
Text Label 2150 3600 0    50   ~ 0
VOUT_RTN2
Text Label 2150 3800 0    50   ~ 0
HVOUT2
Text Label 2150 3900 0    50   ~ 0
HVOUT_RTN2
Text Label 2150 4050 0    50   ~ 0
OUT
Text Label 1000 3500 2    50   ~ 0
HVIN
Text Label 1000 3650 2    50   ~ 0
CMDin2_P
Text Label 1000 3750 2    50   ~ 0
CMDin2_N
Text Label 1000 3850 2    50   ~ 0
CMDout2_P
Text Label 1000 3950 2    50   ~ 0
CMDout2_N
Text Label 1000 4250 2    50   ~ 0
ANALOGUE
Text Label 1000 4450 2    50   ~ 0
OUT_EN2
Text Label 1000 4550 2    50   ~ 0
OUT_SEL[0..3]
Text Label 2150 4900 0    50   ~ 0
VOUT3
Text Label 2150 5000 0    50   ~ 0
VOUT_RTN3
Text Label 2150 5200 0    50   ~ 0
HVOUT3
Text Label 2150 5300 0    50   ~ 0
HVOUT_RTN3
Text Label 2150 5450 0    50   ~ 0
OUT
Text Label 1000 4900 2    50   ~ 0
HVIN
Text Label 1000 5050 2    50   ~ 0
CMDin3_P
Text Label 1000 5150 2    50   ~ 0
CMDin3_N
Text Label 1000 5250 2    50   ~ 0
CMDout3_P
Text Label 1000 5350 2    50   ~ 0
CMDout3_N
Text Label 1000 5650 2    50   ~ 0
ANALOGUE
Text Label 1000 5850 2    50   ~ 0
OUT_EN3
Text Label 1000 5950 2    50   ~ 0
OUT_SEL[0..3]
Text Label 2150 6300 0    50   ~ 0
VOUT4
Text Label 2150 6400 0    50   ~ 0
VOUT_RTN4
Text Label 2150 6600 0    50   ~ 0
HVOUT4
Text Label 2150 6700 0    50   ~ 0
HVOUT_RTN4
Text Label 2150 6850 0    50   ~ 0
OUT
Text Label 1000 6300 2    50   ~ 0
HVIN
Text Label 1000 6450 2    50   ~ 0
CMDin4_P
Text Label 1000 6550 2    50   ~ 0
CMDin4_N
Text Label 1000 6650 2    50   ~ 0
CMDout4_P
Text Label 1000 6750 2    50   ~ 0
CMDout4_N
Text Label 1000 7050 2    50   ~ 0
ANALOGUE
Text Label 1000 7250 2    50   ~ 0
OUT_EN4
Text Label 1000 7350 2    50   ~ 0
OUT_SEL[0..3]
Text Label 4500 700  0    50   ~ 0
VOUT5
Text Label 4500 800  0    50   ~ 0
VOUT_RTN5
Text Label 4500 1000 0    50   ~ 0
HVOUT5
Text Label 4500 1100 0    50   ~ 0
HVOUT_RTN5
Text Label 4500 1250 0    50   ~ 0
OUT
Text Label 3350 700  2    50   ~ 0
HVIN
Text Label 3350 850  2    50   ~ 0
CMDin5_P
Text Label 3350 950  2    50   ~ 0
CMDin5_N
Text Label 3350 1050 2    50   ~ 0
CMDout5_P
Text Label 3350 1150 2    50   ~ 0
CMDout5_N
Text Label 3350 1450 2    50   ~ 0
ANALOGUE
Text Label 3350 1650 2    50   ~ 0
OUT_EN5
Text Label 3350 1750 2    50   ~ 0
OUT_SEL[0..3]
Text Label 4500 2100 0    50   ~ 0
VOUT6
Text Label 4500 2200 0    50   ~ 0
VOUT_RTN6
Text Label 4500 2400 0    50   ~ 0
HVOUT6
Text Label 4500 2500 0    50   ~ 0
HVOUT_RTN6
Text Label 4500 2650 0    50   ~ 0
OUT
Text Label 3350 2100 2    50   ~ 0
HVIN
Text Label 3350 2250 2    50   ~ 0
CMDin6_P
Text Label 3350 2350 2    50   ~ 0
CMDin6_N
Text Label 3350 2450 2    50   ~ 0
CMDout6_P
Text Label 3350 2550 2    50   ~ 0
CMDout6_N
Text Label 3350 2850 2    50   ~ 0
ANALOGUE
Text Label 3350 3050 2    50   ~ 0
OUT_EN6
Text Label 3350 3150 2    50   ~ 0
OUT_SEL[0..3]
Text Label 4500 3500 0    50   ~ 0
VOUT7
Text Label 4500 3600 0    50   ~ 0
VOUT_RTN7
Text Label 4500 3800 0    50   ~ 0
HVOUT7
Text Label 4500 3900 0    50   ~ 0
HVOUT_RTN7
Text Label 4500 4050 0    50   ~ 0
OUT
Text Label 3350 3500 2    50   ~ 0
HVIN
Text Label 3350 3650 2    50   ~ 0
CMDin7_P
Text Label 3350 3750 2    50   ~ 0
CMDin7_N
Text Label 3350 3850 2    50   ~ 0
CMDout7_P
Text Label 3350 3950 2    50   ~ 0
CMDout7_N
Text Label 3350 4250 2    50   ~ 0
ANALOGUE
Text Label 3350 4450 2    50   ~ 0
OUT_EN7
Text Label 3350 4550 2    50   ~ 0
OUT_SEL[0..3]
Text Label 4500 4900 0    50   ~ 0
VOUT8
Text Label 4500 5000 0    50   ~ 0
VOUT_RTN8
Text Label 4500 5200 0    50   ~ 0
HVOUT8
Text Label 4500 5300 0    50   ~ 0
HVOUT_RTN8
Text Label 4500 5450 0    50   ~ 0
OUT
Text Label 3350 4900 2    50   ~ 0
HVIN
Text Label 3350 5050 2    50   ~ 0
CMDin8_P
Text Label 3350 5150 2    50   ~ 0
CMDin8_N
Text Label 3350 5250 2    50   ~ 0
CMDout8_P
Text Label 3350 5350 2    50   ~ 0
CMDout8_N
Text Label 3350 5650 2    50   ~ 0
ANALOGUE
Text Label 3350 5850 2    50   ~ 0
OUT_EN8
Text Label 3350 5950 2    50   ~ 0
OUT_SEL[0..3]
Text Label 4500 6300 0    50   ~ 0
VOUT9
Text Label 4500 6400 0    50   ~ 0
VOUT_RTN9
Text Label 4500 6600 0    50   ~ 0
HVOUT9
Text Label 4500 6700 0    50   ~ 0
HVOUT_RTN9
Text Label 4500 6850 0    50   ~ 0
OUT
Text Label 3350 6300 2    50   ~ 0
HVIN
Text Label 3350 6450 2    50   ~ 0
CMDin9_P
Text Label 3350 6550 2    50   ~ 0
CMDin9_N
Text Label 3350 6650 2    50   ~ 0
CMDout9_P
Text Label 3350 6750 2    50   ~ 0
CMDout9_N
Text Label 3350 7050 2    50   ~ 0
ANALOGUE
Text Label 3350 7250 2    50   ~ 0
OUT_EN9
Text Label 3350 7350 2    50   ~ 0
OUT_SEL[0..3]
$Sheet
S 5450 600  1100 550 
U 5C00B38E
F0 "IOBox" 50
F1 "IOBox.sch" 50
F2 "I2C_SDA" I L 5450 700 50 
F3 "I2C_SCL" I L 5450 800 50 
F4 "OUT_EN[0..9]" O R 6550 800 50 
F5 "OFin[0..9]" O R 6550 1050 50 
F6 "OUT_SEL[0..3]" O R 6550 700 50 
F7 "RTN_SEL[0..3]" O R 6550 900 50 
$EndSheet
Text Label 5400 800  2    50   ~ 0
I2C_SCL
Text Label 5400 700  2    50   ~ 0
I2C_SDA
Text Label 6600 700  0    50   ~ 0
OUT_SEL[0..3]
Text Label 6600 800  0    50   ~ 0
OUT_EN[0..9]
Text Label 6600 900  0    50   ~ 0
RTN_SEL[0..3]
Text Label 6600 1050 0    50   ~ 0
OFin[0..9]
Entry Wire Line
	5500 1450 5600 1550
Entry Wire Line
	5500 1550 5600 1650
Entry Wire Line
	5500 1650 5600 1750
Entry Wire Line
	5500 1750 5600 1850
Text Label 5500 1350 2    50   ~ 0
OUT_EN[0..9]
Entry Wire Line
	5500 1850 5600 1950
Entry Wire Line
	5500 1950 5600 2050
Entry Wire Line
	5500 2050 5600 2150
Entry Wire Line
	5500 2150 5600 2250
Entry Wire Line
	5500 2250 5600 2350
Entry Wire Line
	5500 2350 5600 2450
Text Label 5650 1550 0    50   ~ 0
OUT_EN0
Text Label 5650 1650 0    50   ~ 0
OUT_EN1
Text Label 5650 1750 0    50   ~ 0
OUT_EN2
Text Label 5650 1850 0    50   ~ 0
OUT_EN3
Text Label 5650 1950 0    50   ~ 0
OUT_EN4
Text Label 5650 2050 0    50   ~ 0
OUT_EN5
Text Label 5650 2150 0    50   ~ 0
OUT_EN6
Text Label 5650 2250 0    50   ~ 0
OUT_EN7
Text Label 5650 2350 0    50   ~ 0
OUT_EN8
Text Label 5650 2450 0    50   ~ 0
OUT_EN9
Wire Wire Line
	5600 1550 5650 1550
Wire Wire Line
	5600 1650 5650 1650
Wire Wire Line
	5600 1750 5650 1750
Wire Wire Line
	5600 1850 5650 1850
Wire Wire Line
	5600 1950 5650 1950
Wire Wire Line
	5600 2050 5650 2050
Wire Wire Line
	5600 2150 5650 2150
Wire Wire Line
	5600 2250 5650 2250
Wire Wire Line
	5600 2350 5650 2350
Wire Wire Line
	5600 2450 5650 2450
Entry Wire Line
	6550 1450 6650 1550
Entry Wire Line
	6550 1550 6650 1650
Entry Wire Line
	6550 1650 6650 1750
Entry Wire Line
	6550 1750 6650 1850
Text Label 6550 1350 2    50   ~ 0
OFin[0..9]
Entry Wire Line
	6550 1850 6650 1950
Entry Wire Line
	6550 1950 6650 2050
Entry Wire Line
	6550 2050 6650 2150
Entry Wire Line
	6550 2150 6650 2250
Entry Wire Line
	6550 2250 6650 2350
Entry Wire Line
	6550 2350 6650 2450
Wire Wire Line
	6650 1550 6700 1550
Wire Wire Line
	6650 1650 6700 1650
Wire Wire Line
	6650 1750 6700 1750
Wire Wire Line
	6650 1850 6700 1850
Wire Wire Line
	6650 1950 6700 1950
Wire Wire Line
	6650 2050 6700 2050
Wire Wire Line
	6650 2150 6700 2150
Wire Wire Line
	6650 2250 6700 2250
Wire Wire Line
	6650 2350 6700 2350
Wire Wire Line
	6650 2450 6700 2450
Text Label 6700 1550 0    50   ~ 0
OFin0
Text Label 6700 1650 0    50   ~ 0
OFin1
Text Label 6700 1750 0    50   ~ 0
OFin2
Text Label 6700 1850 0    50   ~ 0
OFin3
Text Label 6700 1950 0    50   ~ 0
OFin4
Text Label 6700 2050 0    50   ~ 0
OFin5
Text Label 6700 2150 0    50   ~ 0
OFin6
Text Label 6700 2250 0    50   ~ 0
OFin7
Text Label 6700 2350 0    50   ~ 0
OFin8
Text Label 6700 2450 0    50   ~ 0
OFin9
$Comp
L 74xx:CD74HC4067M U?
U 1 1 5C05DAA1
P 6050 6400
AR Path="/5C020D45/5C05DAA1" Ref="U?"  Part="1" 
AR Path="/5C05860C/5C05DAA1" Ref="U?"  Part="1" 
AR Path="/5C05AC9E/5C05DAA1" Ref="U?"  Part="1" 
AR Path="/5C05D338/5C05DAA1" Ref="U?"  Part="1" 
AR Path="/5C05D354/5C05DAA1" Ref="U?"  Part="1" 
AR Path="/5C05F9F6/5C05DAA1" Ref="U?"  Part="1" 
AR Path="/5C0620A6/5C05DAA1" Ref="U?"  Part="1" 
AR Path="/5C0620C2/5C05DAA1" Ref="U?"  Part="1" 
AR Path="/5C0620DE/5C05DAA1" Ref="U?"  Part="1" 
AR Path="/5C0620FA/5C05DAA1" Ref="U?"  Part="1" 
AR Path="/5C062116/5C05DAA1" Ref="U?"  Part="1" 
AR Path="/5C05DAA1" Ref="U4"  Part="1" 
F 0 "U4" H 5700 5350 50  0000 C CNN
F 1 "CD74HC4067M" H 5650 7350 50  0000 C CNN
F 2 "Package_SO:SSOP-24_5.3x8.2mm_P0.65mm" H 6950 5400 50  0001 C CIN
F 3 "http://www.ti.com/lit/ds/symlink/cd74hc4067.pdf" H 5700 7250 50  0001 C CNN
F 4 "CD74HC4067M96" H 6050 6400 50  0001 C CNN "mfg#"
F 5 "C496123" H 6050 6400 50  0001 C CNN "LCSC"
	1    6050 6400
	1    0    0    -1  
$EndComp
$Comp
L power:+3V3 #PWR?
U 1 1 5C05DAA8
P 6050 5300
AR Path="/5C020D45/5C05DAA8" Ref="#PWR?"  Part="1" 
AR Path="/5C05860C/5C05DAA8" Ref="#PWR?"  Part="1" 
AR Path="/5C05AC9E/5C05DAA8" Ref="#PWR?"  Part="1" 
AR Path="/5C05D338/5C05DAA8" Ref="#PWR?"  Part="1" 
AR Path="/5C05D354/5C05DAA8" Ref="#PWR?"  Part="1" 
AR Path="/5C05F9F6/5C05DAA8" Ref="#PWR?"  Part="1" 
AR Path="/5C0620A6/5C05DAA8" Ref="#PWR?"  Part="1" 
AR Path="/5C0620C2/5C05DAA8" Ref="#PWR?"  Part="1" 
AR Path="/5C0620DE/5C05DAA8" Ref="#PWR?"  Part="1" 
AR Path="/5C0620FA/5C05DAA8" Ref="#PWR?"  Part="1" 
AR Path="/5C062116/5C05DAA8" Ref="#PWR?"  Part="1" 
AR Path="/5C05DAA8" Ref="#PWR04"  Part="1" 
F 0 "#PWR04" H 6050 5150 50  0001 C CNN
F 1 "+3V3" H 6065 5473 50  0000 C CNN
F 2 "" H 6050 5300 50  0001 C CNN
F 3 "" H 6050 5300 50  0001 C CNN
	1    6050 5300
	1    0    0    -1  
$EndComp
Wire Wire Line
	6050 5400 6050 5300
$Comp
L power:+3V3 #PWR?
U 1 1 5C05DAAF
P 5100 5350
AR Path="/5C020D45/5C05DAAF" Ref="#PWR?"  Part="1" 
AR Path="/5C05860C/5C05DAAF" Ref="#PWR?"  Part="1" 
AR Path="/5C05AC9E/5C05DAAF" Ref="#PWR?"  Part="1" 
AR Path="/5C05D338/5C05DAAF" Ref="#PWR?"  Part="1" 
AR Path="/5C05D354/5C05DAAF" Ref="#PWR?"  Part="1" 
AR Path="/5C05F9F6/5C05DAAF" Ref="#PWR?"  Part="1" 
AR Path="/5C0620A6/5C05DAAF" Ref="#PWR?"  Part="1" 
AR Path="/5C0620C2/5C05DAAF" Ref="#PWR?"  Part="1" 
AR Path="/5C0620DE/5C05DAAF" Ref="#PWR?"  Part="1" 
AR Path="/5C0620FA/5C05DAAF" Ref="#PWR?"  Part="1" 
AR Path="/5C062116/5C05DAAF" Ref="#PWR?"  Part="1" 
AR Path="/5C05DAAF" Ref="#PWR01"  Part="1" 
F 0 "#PWR01" H 5100 5200 50  0001 C CNN
F 1 "+3V3" H 5115 5523 50  0000 C CNN
F 2 "" H 5100 5350 50  0001 C CNN
F 3 "" H 5100 5350 50  0001 C CNN
	1    5100 5350
	1    0    0    -1  
$EndComp
$Comp
L Device:C C?
U 1 1 5C05DAB5
P 5100 5550
AR Path="/5C020D45/5C05DAB5" Ref="C?"  Part="1" 
AR Path="/5C05860C/5C05DAB5" Ref="C?"  Part="1" 
AR Path="/5C05AC9E/5C05DAB5" Ref="C?"  Part="1" 
AR Path="/5C05D338/5C05DAB5" Ref="C?"  Part="1" 
AR Path="/5C05D354/5C05DAB5" Ref="C?"  Part="1" 
AR Path="/5C05F9F6/5C05DAB5" Ref="C?"  Part="1" 
AR Path="/5C0620A6/5C05DAB5" Ref="C?"  Part="1" 
AR Path="/5C0620C2/5C05DAB5" Ref="C?"  Part="1" 
AR Path="/5C0620DE/5C05DAB5" Ref="C?"  Part="1" 
AR Path="/5C0620FA/5C05DAB5" Ref="C?"  Part="1" 
AR Path="/5C062116/5C05DAB5" Ref="C?"  Part="1" 
AR Path="/5C05DAB5" Ref="C2"  Part="1" 
F 0 "C2" H 5215 5596 50  0000 L CNN
F 1 "0.1uF" H 5215 5505 50  0000 L CNN
F 2 "Capacitor_SMD:C_0805_2012Metric" H 5138 5400 50  0001 C CNN
F 3 "http://www.yageo.com/documents/recent/UPY-GPHC_X7R_6.3V-to-50V_18.pdf" H 5100 5550 50  0001 C CNN
F 4 "C49678" H 5100 5550 50  0001 C CNN "LCSC"
	1    5100 5550
	1    0    0    -1  
$EndComp
Wire Wire Line
	6050 7550 6050 7500
Text Label 5150 6300 0    50   ~ 0
RTN_SEL3
Text Label 5150 6500 0    50   ~ 0
RTN_SEL2
Text Label 5150 6400 0    50   ~ 0
RTN_SEL1
Text Label 5150 6600 0    50   ~ 0
RTN_SEL0
Wire Wire Line
	5150 6300 5550 6300
Wire Wire Line
	5550 6400 5150 6400
Wire Wire Line
	5150 6500 5550 6500
Wire Wire Line
	5550 6600 5150 6600
$Comp
L power:GNDPWR #PWR?
U 1 1 5C05DADF
P 6050 7550
AR Path="/5C020D45/5C05DADF" Ref="#PWR?"  Part="1" 
AR Path="/5C05AC9E/5C05DADF" Ref="#PWR?"  Part="1" 
AR Path="/5C05D338/5C05DADF" Ref="#PWR?"  Part="1" 
AR Path="/5C05D354/5C05DADF" Ref="#PWR?"  Part="1" 
AR Path="/5C05F9F6/5C05DADF" Ref="#PWR?"  Part="1" 
AR Path="/5C0620A6/5C05DADF" Ref="#PWR?"  Part="1" 
AR Path="/5C0620C2/5C05DADF" Ref="#PWR?"  Part="1" 
AR Path="/5C0620DE/5C05DADF" Ref="#PWR?"  Part="1" 
AR Path="/5C0620FA/5C05DADF" Ref="#PWR?"  Part="1" 
AR Path="/5C062116/5C05DADF" Ref="#PWR?"  Part="1" 
AR Path="/5C05DADF" Ref="#PWR05"  Part="1" 
F 0 "#PWR05" H 6050 7350 50  0001 C CNN
F 1 "GNDPWR" H 6054 7396 50  0000 C CNN
F 2 "" H 6050 7500 50  0001 C CNN
F 3 "" H 6050 7500 50  0001 C CNN
	1    6050 7550
	1    0    0    -1  
$EndComp
$Comp
L power:GNDPWR #PWR?
U 1 1 5C05DAE5
P 5100 5750
AR Path="/5C020D45/5C05DAE5" Ref="#PWR?"  Part="1" 
AR Path="/5C05AC9E/5C05DAE5" Ref="#PWR?"  Part="1" 
AR Path="/5C05D338/5C05DAE5" Ref="#PWR?"  Part="1" 
AR Path="/5C05D354/5C05DAE5" Ref="#PWR?"  Part="1" 
AR Path="/5C05F9F6/5C05DAE5" Ref="#PWR?"  Part="1" 
AR Path="/5C0620A6/5C05DAE5" Ref="#PWR?"  Part="1" 
AR Path="/5C0620C2/5C05DAE5" Ref="#PWR?"  Part="1" 
AR Path="/5C0620DE/5C05DAE5" Ref="#PWR?"  Part="1" 
AR Path="/5C0620FA/5C05DAE5" Ref="#PWR?"  Part="1" 
AR Path="/5C062116/5C05DAE5" Ref="#PWR?"  Part="1" 
AR Path="/5C05DAE5" Ref="#PWR02"  Part="1" 
F 0 "#PWR02" H 5100 5550 50  0001 C CNN
F 1 "GNDPWR" H 5104 5596 50  0000 C CNN
F 2 "" H 5100 5700 50  0001 C CNN
F 3 "" H 5100 5700 50  0001 C CNN
	1    5100 5750
	1    0    0    -1  
$EndComp
$Comp
L power:GNDPWR #PWR03
U 1 1 5C064A03
P 5450 7550
F 0 "#PWR03" H 5450 7350 50  0001 C CNN
F 1 "GNDPWR" H 5454 7396 50  0000 C CNN
F 2 "" H 5450 7500 50  0001 C CNN
F 3 "" H 5450 7500 50  0001 C CNN
	1    5450 7550
	1    0    0    -1  
$EndComp
Wire Wire Line
	5450 7000 5550 7000
Text Label 6550 5700 0    50   ~ 0
VOUT_RTN0
Text Label 6550 5800 0    50   ~ 0
VOUT_RTN1
Text Label 6550 5900 0    50   ~ 0
VOUT_RTN2
Text Label 6550 6000 0    50   ~ 0
VOUT_RTN3
Text Label 6550 6100 0    50   ~ 0
VOUT_RTN4
Text Label 6550 6200 0    50   ~ 0
VOUT_RTN5
Text Label 6550 6300 0    50   ~ 0
VOUT_RTN6
Text Label 6550 6400 0    50   ~ 0
VOUT_RTN7
Text Label 6550 6500 0    50   ~ 0
VOUT_RTN8
Text Label 6550 6600 0    50   ~ 0
VOUT_RTN9
Wire Wire Line
	6550 6700 6550 6800
Connection ~ 6550 6800
Wire Wire Line
	6550 6800 6550 6900
Connection ~ 6550 6900
Wire Wire Line
	6550 6900 6550 7000
Connection ~ 6550 7000
Wire Wire Line
	6550 7000 6550 7100
Connection ~ 6550 7100
Wire Wire Line
	6550 7100 6550 7200
Connection ~ 6550 7200
$Comp
L power:GNDPWR #PWR06
U 1 1 5C06C2C8
P 6550 7550
F 0 "#PWR06" H 6550 7350 50  0001 C CNN
F 1 "GNDPWR" H 6554 7396 50  0000 C CNN
F 2 "" H 6550 7500 50  0001 C CNN
F 3 "" H 6550 7500 50  0001 C CNN
	1    6550 7550
	1    0    0    -1  
$EndComp
Wire Wire Line
	5450 7000 5450 7550
Wire Wire Line
	6550 7200 6550 7550
Text Label 5550 5900 2    50   ~ 0
OUT_RTN
Text Label 2150 1450 0    50   ~ 0
COILp0
Text Label 2150 1550 0    50   ~ 0
COILn0
Wire Wire Line
	5100 5750 5100 5700
Wire Wire Line
	5100 5350 5100 5400
Text Label 2150 2850 0    50   ~ 0
COILp1
Text Label 2150 4250 0    50   ~ 0
COILp2
Text Label 2150 5650 0    50   ~ 0
COILp3
Text Label 2150 7050 0    50   ~ 0
COILp4
Text Label 4500 1450 0    50   ~ 0
COILp5
Text Label 4500 2850 0    50   ~ 0
COILp6
Text Label 4500 4250 0    50   ~ 0
COILp7
Text Label 4500 5650 0    50   ~ 0
COILp8
Text Label 4500 7050 0    50   ~ 0
COILp9
Text Label 2150 2950 0    50   ~ 0
COILn1
Text Label 2150 4350 0    50   ~ 0
COILn2
Text Label 2150 5750 0    50   ~ 0
COILn3
Text Label 2150 7150 0    50   ~ 0
COILn4
Text Label 4500 1550 0    50   ~ 0
COILn5
Text Label 4500 2950 0    50   ~ 0
COILn6
Text Label 4500 4350 0    50   ~ 0
COILn7
Text Label 4500 5750 0    50   ~ 0
COILn8
Text Label 4500 7150 0    50   ~ 0
COILn9
Text Label 1000 1300 2    50   ~ 0
OFin0
Text Label 1000 2700 2    50   ~ 0
OFin1
Text Label 1000 4100 2    50   ~ 0
OFin2
Text Label 1000 5500 2    50   ~ 0
OFin3
Text Label 1000 6900 2    50   ~ 0
OFin4
$Sheet
S 1050 600  1050 1250
U 5C0C5B17
F0 "PB0" 50
F1 "Powerboard.sch" 50
F2 "OUT" O R 2100 1250 50 
F3 "OUT_SEL[0..3]" I L 1050 1750 50 
F4 "OUT_EN" I L 1050 1650 50 
F5 "CMDin_N" I L 1050 950 50 
F6 "CMDin_P" I L 1050 850 50 
F7 "CMDout_P" O L 1050 1050 50 
F8 "CMDout_N" O L 1050 1150 50 
F9 "ANALOGUE" I L 1050 1450 50 
F10 "VOUT" O R 2100 700 50 
F11 "VOUT_RTN" I R 2100 800 50 
F12 "HVout" O R 2100 1000 50 
F13 "HVret" I R 2100 1100 50 
F14 "HVin" I L 1050 700 50 
F15 "COILp" I R 2100 1450 50 
F16 "COILn" O R 2100 1550 50 
F17 "OFin" I L 1050 1300 50 
$EndSheet
$Sheet
S 1050 4800 1050 1250
U 5C0CA217
F0 "PB3" 50
F1 "Powerboard.sch" 50
F2 "OUT" O R 2100 5450 50 
F3 "OUT_SEL[0..3]" I L 1050 5950 50 
F4 "OUT_EN" I L 1050 5850 50 
F5 "CMDin_N" I L 1050 5150 50 
F6 "CMDin_P" I L 1050 5050 50 
F7 "CMDout_P" O L 1050 5250 50 
F8 "CMDout_N" O L 1050 5350 50 
F9 "ANALOGUE" I L 1050 5650 50 
F10 "VOUT" O R 2100 4900 50 
F11 "VOUT_RTN" I R 2100 5000 50 
F12 "HVout" O R 2100 5200 50 
F13 "HVret" I R 2100 5300 50 
F14 "HVin" I L 1050 4900 50 
F15 "COILp" I R 2100 5650 50 
F16 "COILn" O R 2100 5750 50 
F17 "OFin" I L 1050 5500 50 
$EndSheet
$Sheet
S 1050 3400 1050 1250
U 5C0CA229
F0 "PB2" 50
F1 "Powerboard.sch" 50
F2 "OUT" O R 2100 4050 50 
F3 "OUT_SEL[0..3]" I L 1050 4550 50 
F4 "OUT_EN" I L 1050 4450 50 
F5 "CMDin_N" I L 1050 3750 50 
F6 "CMDin_P" I L 1050 3650 50 
F7 "CMDout_P" O L 1050 3850 50 
F8 "CMDout_N" O L 1050 3950 50 
F9 "ANALOGUE" I L 1050 4250 50 
F10 "VOUT" O R 2100 3500 50 
F11 "VOUT_RTN" I R 2100 3600 50 
F12 "HVout" O R 2100 3800 50 
F13 "HVret" I R 2100 3900 50 
F14 "HVin" I L 1050 3500 50 
F15 "COILp" I R 2100 4250 50 
F16 "COILn" O R 2100 4350 50 
F17 "OFin" I L 1050 4100 50 
$EndSheet
$Sheet
S 3400 600  1050 1250
U 5C0CE926
F0 "PB5" 50
F1 "Powerboard.sch" 50
F2 "OUT" O R 4450 1250 50 
F3 "OUT_SEL[0..3]" I L 3400 1750 50 
F4 "OUT_EN" I L 3400 1650 50 
F5 "CMDin_N" I L 3400 950 50 
F6 "CMDin_P" I L 3400 850 50 
F7 "CMDout_P" O L 3400 1050 50 
F8 "CMDout_N" O L 3400 1150 50 
F9 "ANALOGUE" I L 3400 1450 50 
F10 "VOUT" O R 4450 700 50 
F11 "VOUT_RTN" I R 4450 800 50 
F12 "HVout" O R 4450 1000 50 
F13 "HVret" I R 4450 1100 50 
F14 "HVin" I L 3400 700 50 
F15 "COILp" I R 4450 1450 50 
F16 "COILn" O R 4450 1550 50 
F17 "OFin" I L 3400 1300 50 
$EndSheet
$Sheet
S 1050 6200 1050 1250
U 5C0D3148
F0 "PB4" 50
F1 "Powerboard.sch" 50
F2 "OUT" O R 2100 6850 50 
F3 "OUT_SEL[0..3]" I L 1050 7350 50 
F4 "OUT_EN" I L 1050 7250 50 
F5 "CMDin_N" I L 1050 6550 50 
F6 "CMDin_P" I L 1050 6450 50 
F7 "CMDout_P" O L 1050 6650 50 
F8 "CMDout_N" O L 1050 6750 50 
F9 "ANALOGUE" I L 1050 7050 50 
F10 "VOUT" O R 2100 6300 50 
F11 "VOUT_RTN" I R 2100 6400 50 
F12 "HVout" O R 2100 6600 50 
F13 "HVret" I R 2100 6700 50 
F14 "HVin" I L 1050 6300 50 
F15 "COILp" I R 2100 7050 50 
F16 "COILn" O R 2100 7150 50 
F17 "OFin" I L 1050 6900 50 
$EndSheet
$Sheet
S 3400 3400 1050 1250
U 5C0D315A
F0 "PB7" 50
F1 "Powerboard.sch" 50
F2 "OUT" O R 4450 4050 50 
F3 "OUT_SEL[0..3]" I L 3400 4550 50 
F4 "OUT_EN" I L 3400 4450 50 
F5 "CMDin_N" I L 3400 3750 50 
F6 "CMDin_P" I L 3400 3650 50 
F7 "CMDout_P" O L 3400 3850 50 
F8 "CMDout_N" O L 3400 3950 50 
F9 "ANALOGUE" I L 3400 4250 50 
F10 "VOUT" O R 4450 3500 50 
F11 "VOUT_RTN" I R 4450 3600 50 
F12 "HVout" O R 4450 3800 50 
F13 "HVret" I R 4450 3900 50 
F14 "HVin" I L 3400 3500 50 
F15 "COILp" I R 4450 4250 50 
F16 "COILn" O R 4450 4350 50 
F17 "OFin" I L 3400 4100 50 
$EndSheet
$Sheet
S 3400 2000 1050 1250
U 5C0D316C
F0 "PB6" 50
F1 "Powerboard.sch" 50
F2 "OUT" O R 4450 2650 50 
F3 "OUT_SEL[0..3]" I L 3400 3150 50 
F4 "OUT_EN" I L 3400 3050 50 
F5 "CMDin_N" I L 3400 2350 50 
F6 "CMDin_P" I L 3400 2250 50 
F7 "CMDout_P" O L 3400 2450 50 
F8 "CMDout_N" O L 3400 2550 50 
F9 "ANALOGUE" I L 3400 2850 50 
F10 "VOUT" O R 4450 2100 50 
F11 "VOUT_RTN" I R 4450 2200 50 
F12 "HVout" O R 4450 2400 50 
F13 "HVret" I R 4450 2500 50 
F14 "HVin" I L 3400 2100 50 
F15 "COILp" I R 4450 2850 50 
F16 "COILn" O R 4450 2950 50 
F17 "OFin" I L 3400 2700 50 
$EndSheet
$Sheet
S 3400 6200 1050 1250
U 5C0D317E
F0 "PB9" 50
F1 "Powerboard.sch" 50
F2 "OUT" O R 4450 6850 50 
F3 "OUT_SEL[0..3]" I L 3400 7350 50 
F4 "OUT_EN" I L 3400 7250 50 
F5 "CMDin_N" I L 3400 6550 50 
F6 "CMDin_P" I L 3400 6450 50 
F7 "CMDout_P" O L 3400 6650 50 
F8 "CMDout_N" O L 3400 6750 50 
F9 "ANALOGUE" I L 3400 7050 50 
F10 "VOUT" O R 4450 6300 50 
F11 "VOUT_RTN" I R 4450 6400 50 
F12 "HVout" O R 4450 6600 50 
F13 "HVret" I R 4450 6700 50 
F14 "HVin" I L 3400 6300 50 
F15 "COILp" I R 4450 7050 50 
F16 "COILn" O R 4450 7150 50 
F17 "OFin" I L 3400 6900 50 
$EndSheet
$Sheet
S 3400 4800 1050 1250
U 5C0D3190
F0 "PB8" 50
F1 "Powerboard.sch" 50
F2 "OUT" O R 4450 5450 50 
F3 "OUT_SEL[0..3]" I L 3400 5950 50 
F4 "OUT_EN" I L 3400 5850 50 
F5 "CMDin_N" I L 3400 5150 50 
F6 "CMDin_P" I L 3400 5050 50 
F7 "CMDout_P" O L 3400 5250 50 
F8 "CMDout_N" O L 3400 5350 50 
F9 "ANALOGUE" I L 3400 5650 50 
F10 "VOUT" O R 4450 4900 50 
F11 "VOUT_RTN" I R 4450 5000 50 
F12 "HVout" O R 4450 5200 50 
F13 "HVret" I R 4450 5300 50 
F14 "HVin" I L 3400 4900 50 
F15 "COILp" I R 4450 5650 50 
F16 "COILn" O R 4450 5750 50 
F17 "OFin" I L 3400 5500 50 
$EndSheet
Text Label 3350 1300 2    50   ~ 0
OFin5
Text Label 3350 2700 2    50   ~ 0
OFin6
Text Label 3350 4100 2    50   ~ 0
OFin7
Text Label 3350 5500 2    50   ~ 0
OFin8
Text Label 3350 6900 2    50   ~ 0
OFin9
Entry Wire Line
	5050 6200 5150 6300
Entry Wire Line
	5050 6300 5150 6400
Entry Wire Line
	5050 6400 5150 6500
Entry Wire Line
	5050 6500 5150 6600
Text Label 5050 6150 2    50   ~ 0
RTN_SEL[0..3]
Wire Bus Line
	6600 700  6550 700 
Wire Bus Line
	6600 900  6550 900 
Wire Bus Line
	6600 800  6550 800 
Wire Bus Line
	1050 1750 1000 1750
Wire Wire Line
	1000 700  1050 700 
Wire Wire Line
	1000 850  1050 850 
Wire Wire Line
	1050 950  1000 950 
Wire Wire Line
	1000 1050 1050 1050
Wire Wire Line
	1050 1150 1000 1150
Wire Wire Line
	1000 1300 1050 1300
Wire Wire Line
	1000 1450 1050 1450
Wire Wire Line
	1000 1650 1050 1650
Wire Bus Line
	1000 3150 1050 3150
Wire Wire Line
	1050 2100 1000 2100
Wire Wire Line
	1050 2250 1000 2250
Wire Wire Line
	1000 2350 1050 2350
Wire Wire Line
	1050 2450 1000 2450
Wire Wire Line
	1000 2550 1050 2550
Wire Wire Line
	1050 2700 1000 2700
Wire Wire Line
	1050 2850 1000 2850
Wire Wire Line
	1050 3050 1000 3050
Wire Bus Line
	1000 4550 1050 4550
Wire Wire Line
	1050 3500 1000 3500
Wire Wire Line
	1050 3650 1000 3650
Wire Wire Line
	1000 3750 1050 3750
Wire Wire Line
	1050 3850 1000 3850
Wire Wire Line
	1000 3950 1050 3950
Wire Wire Line
	1050 4100 1000 4100
Wire Wire Line
	1050 4250 1000 4250
Wire Wire Line
	1050 4450 1000 4450
Wire Bus Line
	1000 5950 1050 5950
Wire Wire Line
	1050 4900 1000 4900
Wire Wire Line
	1050 5050 1000 5050
Wire Wire Line
	1000 5150 1050 5150
Wire Wire Line
	1050 5250 1000 5250
Wire Wire Line
	1000 5350 1050 5350
Wire Wire Line
	1050 5500 1000 5500
Wire Wire Line
	1050 5650 1000 5650
Wire Wire Line
	1050 5850 1000 5850
Wire Bus Line
	1000 7350 1050 7350
Wire Wire Line
	1050 6300 1000 6300
Wire Wire Line
	1050 6450 1000 6450
Wire Wire Line
	1000 6550 1050 6550
Wire Wire Line
	1050 6650 1000 6650
Wire Wire Line
	1000 6750 1050 6750
Wire Wire Line
	1050 6900 1000 6900
Wire Wire Line
	1050 7050 1000 7050
Wire Wire Line
	1050 7250 1000 7250
Wire Bus Line
	3350 1750 3400 1750
Wire Wire Line
	3400 700  3350 700 
Wire Wire Line
	3400 850  3350 850 
Wire Wire Line
	3350 950  3400 950 
Wire Wire Line
	3400 1050 3350 1050
Wire Wire Line
	3350 1150 3400 1150
Wire Wire Line
	3400 1300 3350 1300
Wire Wire Line
	3400 1450 3350 1450
Wire Wire Line
	3400 1650 3350 1650
Wire Bus Line
	3350 3150 3400 3150
Wire Wire Line
	3400 2100 3350 2100
Wire Wire Line
	3400 2250 3350 2250
Wire Wire Line
	3350 2350 3400 2350
Wire Wire Line
	3400 2450 3350 2450
Wire Wire Line
	3350 2550 3400 2550
Wire Wire Line
	3400 2700 3350 2700
Wire Wire Line
	3400 2850 3350 2850
Wire Wire Line
	3400 3050 3350 3050
Wire Bus Line
	3350 4550 3400 4550
Wire Wire Line
	3400 3500 3350 3500
Wire Wire Line
	3400 3650 3350 3650
Wire Wire Line
	3350 3750 3400 3750
Wire Wire Line
	3400 3850 3350 3850
Wire Wire Line
	3350 3950 3400 3950
Wire Wire Line
	3400 4100 3350 4100
Wire Wire Line
	3400 4250 3350 4250
Wire Wire Line
	3400 4450 3350 4450
Wire Bus Line
	3350 5950 3400 5950
Wire Wire Line
	3400 4900 3350 4900
Wire Wire Line
	3400 5050 3350 5050
Wire Wire Line
	3350 5150 3400 5150
Wire Wire Line
	3400 5250 3350 5250
Wire Wire Line
	3350 5350 3400 5350
Wire Wire Line
	3400 5500 3350 5500
Wire Wire Line
	3400 5650 3350 5650
Wire Wire Line
	3400 5850 3350 5850
Wire Bus Line
	3350 7350 3400 7350
Wire Wire Line
	3400 6300 3350 6300
Wire Wire Line
	3400 6450 3350 6450
Wire Wire Line
	3350 6550 3400 6550
Wire Wire Line
	3400 6650 3350 6650
Wire Wire Line
	3350 6750 3400 6750
Wire Wire Line
	3400 6900 3350 6900
Wire Wire Line
	3400 7050 3350 7050
Wire Wire Line
	3400 7250 3350 7250
Wire Wire Line
	2100 700  2150 700 
Wire Wire Line
	2150 800  2100 800 
Wire Wire Line
	2100 1000 2150 1000
Wire Wire Line
	2150 1100 2100 1100
Wire Wire Line
	2100 1250 2150 1250
Wire Wire Line
	2150 1450 2100 1450
Wire Wire Line
	2100 1550 2150 1550
Wire Wire Line
	2100 2100 2150 2100
Wire Wire Line
	2150 2200 2100 2200
Wire Wire Line
	2100 2400 2150 2400
Wire Wire Line
	2150 2500 2100 2500
Wire Wire Line
	2100 2650 2150 2650
Wire Wire Line
	2150 2850 2100 2850
Wire Wire Line
	2100 2950 2150 2950
Wire Wire Line
	2100 3500 2150 3500
Wire Wire Line
	2150 3600 2100 3600
Wire Wire Line
	2100 3800 2150 3800
Wire Wire Line
	2150 3900 2100 3900
Wire Wire Line
	2100 4050 2150 4050
Wire Wire Line
	2150 4250 2100 4250
Wire Wire Line
	2100 4350 2150 4350
Wire Wire Line
	2100 4900 2150 4900
Wire Wire Line
	2150 5000 2100 5000
Wire Wire Line
	2100 5200 2150 5200
Wire Wire Line
	2150 5300 2100 5300
Wire Wire Line
	2100 5450 2150 5450
Wire Wire Line
	2150 5650 2100 5650
Wire Wire Line
	2100 5750 2150 5750
Wire Wire Line
	2100 6300 2150 6300
Wire Wire Line
	2150 6400 2100 6400
Wire Wire Line
	2100 6600 2150 6600
Wire Wire Line
	2150 6700 2100 6700
Wire Wire Line
	2100 6850 2150 6850
Wire Wire Line
	2150 7050 2100 7050
Wire Wire Line
	2100 7150 2150 7150
Wire Wire Line
	4450 6300 4500 6300
Wire Wire Line
	4500 6400 4450 6400
Wire Wire Line
	4450 6600 4500 6600
Wire Wire Line
	4500 6700 4450 6700
Wire Wire Line
	4450 6850 4500 6850
Wire Wire Line
	4500 7050 4450 7050
Wire Wire Line
	4450 7150 4500 7150
Wire Wire Line
	4450 4900 4500 4900
Wire Wire Line
	4500 5000 4450 5000
Wire Wire Line
	4450 5200 4500 5200
Wire Wire Line
	4500 5300 4450 5300
Wire Wire Line
	4450 5450 4500 5450
Wire Wire Line
	4500 5650 4450 5650
Wire Wire Line
	4450 5750 4500 5750
Wire Wire Line
	4450 3500 4500 3500
Wire Wire Line
	4500 3600 4450 3600
Wire Wire Line
	4450 3800 4500 3800
Wire Wire Line
	4500 3900 4450 3900
Wire Wire Line
	4450 4050 4500 4050
Wire Wire Line
	4500 4250 4450 4250
Wire Wire Line
	4450 4350 4500 4350
Wire Wire Line
	4450 2100 4500 2100
Wire Wire Line
	4500 2200 4450 2200
Wire Wire Line
	4450 2400 4500 2400
Wire Wire Line
	4500 2500 4450 2500
Wire Wire Line
	4450 2650 4500 2650
Wire Wire Line
	4500 2850 4450 2850
Wire Wire Line
	4450 2950 4500 2950
Wire Wire Line
	4450 700  4500 700 
Wire Wire Line
	4500 800  4450 800 
Wire Wire Line
	4450 1000 4500 1000
Wire Wire Line
	4500 1100 4450 1100
Wire Wire Line
	4450 1250 4500 1250
Wire Wire Line
	4500 1450 4450 1450
Wire Wire Line
	4450 1550 4500 1550
Wire Wire Line
	9900 4400 9650 4400
$Comp
L power:+3V3 #PWR0175
U 1 1 5C2CD560
P 9650 4400
F 0 "#PWR0175" H 9650 4250 50  0001 C CNN
F 1 "+3V3" H 9665 4573 50  0000 C CNN
F 2 "" H 9650 4400 50  0001 C CNN
F 3 "" H 9650 4400 50  0001 C CNN
	1    9650 4400
	-1   0    0    -1  
$EndComp
Wire Wire Line
	9900 4500 9650 4500
$Comp
L power:GNDPWR #PWR0176
U 1 1 5C2FBDC4
P 9650 4500
F 0 "#PWR0176" H 9650 4300 50  0001 C CNN
F 1 "GNDPWR" H 9900 4450 50  0000 C CNN
F 2 "" H 9650 4450 50  0001 C CNN
F 3 "" H 9650 4450 50  0001 C CNN
	1    9650 4500
	-1   0    0    -1  
$EndComp
Wire Wire Line
	9900 5100 9650 5100
$Comp
L power:+12V #PWR0107
U 1 1 5C3137DD
P 9650 5100
F 0 "#PWR0107" H 9650 4950 50  0001 C CNN
F 1 "+12V" H 9665 5273 50  0000 C CNN
F 2 "" H 9650 5100 50  0001 C CNN
F 3 "" H 9650 5100 50  0001 C CNN
	1    9650 5100
	1    0    0    -1  
$EndComp
Wire Bus Line
	6600 1050 6550 1050
Wire Wire Line
	5400 700  5450 700 
Wire Wire Line
	5400 800  5450 800 
Connection ~ 9650 4400
$Comp
L power:PWR_FLAG #FLG0102
U 1 1 5C38082B
P 9450 4650
F 0 "#FLG0102" H 9450 4725 50  0001 C CNN
F 1 "PWR_FLAG" H 9450 4823 50  0000 C CNN
F 2 "" H 9450 4650 50  0001 C CNN
F 3 "~" H 9450 4650 50  0001 C CNN
	1    9450 4650
	1    0    0    1   
$EndComp
Wire Wire Line
	9450 4500 9450 4650
Connection ~ 9650 4500
Wire Wire Line
	9450 4400 9450 4250
$Comp
L power:PWR_FLAG #FLG0101
U 1 1 5C45CBF0
P 9450 4250
F 0 "#FLG0101" H 9450 4325 50  0001 C CNN
F 1 "PWR_FLAG" H 9450 4424 50  0000 C CNN
F 2 "" H 9450 4250 50  0001 C CNN
F 3 "~" H 9450 4250 50  0001 C CNN
	1    9450 4250
	-1   0    0    -1  
$EndComp
$Comp
L power:PWR_FLAG #FLG0103
U 1 1 5C4E1913
P 8850 900
F 0 "#FLG0103" H 8850 975 50  0001 C CNN
F 1 "PWR_FLAG" H 8850 1074 50  0000 C CNN
F 2 "" H 8850 900 50  0001 C CNN
F 3 "~" H 8850 900 50  0001 C CNN
	1    8850 900 
	1    0    0    -1  
$EndComp
$Comp
L power:PWR_FLAG #FLG0104
U 1 1 5C4F7EE0
P 7900 700
F 0 "#FLG0104" H 7900 775 50  0001 C CNN
F 1 "PWR_FLAG" H 7900 874 50  0000 C CNN
F 2 "" H 7900 700 50  0001 C CNN
F 3 "~" H 7900 700 50  0001 C CNN
	1    7900 700 
	1    0    0    -1  
$EndComp
Connection ~ 9650 5100
$Comp
L power:PWR_FLAG #FLG0105
U 1 1 5C50EA8E
P 9350 5100
F 0 "#FLG0105" H 9350 5175 50  0001 C CNN
F 1 "PWR_FLAG" H 9350 5274 50  0000 C CNN
F 2 "" H 9350 5100 50  0001 C CNN
F 3 "~" H 9350 5100 50  0001 C CNN
	1    9350 5100
	1    0    0    -1  
$EndComp
Wire Wire Line
	9350 5100 9650 5100
Wire Wire Line
	8600 900  8850 900 
NoConn ~ 8600 800 
Wire Wire Line
	7900 700  7900 800 
Connection ~ 9900 4600
Wire Wire Line
	9900 4600 9900 4700
Connection ~ 9900 4700
Wire Wire Line
	9900 4700 9900 4800
Connection ~ 9900 5200
Wire Wire Line
	9900 5200 9900 5300
Connection ~ 10600 4700
Wire Wire Line
	10600 4700 10600 4600
Connection ~ 10600 4800
Wire Wire Line
	10600 4800 10600 4700
Wire Wire Line
	10600 5200 10600 5300
Connection ~ 10600 5300
Wire Wire Line
	10600 5200 9900 5200
Wire Wire Line
	9900 5300 10600 5300
Wire Wire Line
	9900 4800 10600 4800
Wire Wire Line
	10600 4700 9900 4700
Wire Wire Line
	9900 4600 10600 4600
Wire Wire Line
	7900 1400 7900 1500
Connection ~ 7900 1500
Wire Wire Line
	7900 1500 7900 1600
Connection ~ 7900 1600
Wire Wire Line
	7900 1600 7900 1700
Wire Wire Line
	7900 1800 7900 1900
Connection ~ 7900 1900
Wire Wire Line
	7900 1900 7900 2000
Connection ~ 7900 2000
Wire Wire Line
	7900 2000 7900 2100
Wire Wire Line
	7900 2200 7900 2300
Connection ~ 7900 2300
Wire Wire Line
	7900 2300 7900 2400
Connection ~ 7900 2400
Wire Wire Line
	7900 2400 7900 2500
Wire Wire Line
	7900 2600 7900 2700
Connection ~ 7900 2700
Wire Wire Line
	7900 2700 7900 2800
Connection ~ 7900 2800
Wire Wire Line
	7900 2800 7900 2900
Wire Wire Line
	7900 3000 7900 3100
Connection ~ 7900 3100
Wire Wire Line
	7900 3100 7900 3200
Connection ~ 7900 3200
Wire Wire Line
	7900 3200 7900 3300
Wire Wire Line
	7900 3400 7900 3500
Connection ~ 7900 3500
Wire Wire Line
	7900 3500 7900 3600
Connection ~ 7900 3600
Wire Wire Line
	7900 3600 7900 3700
Wire Wire Line
	7900 3800 7900 3900
Connection ~ 7900 3900
Wire Wire Line
	7900 3900 7900 4000
Connection ~ 7900 4000
Wire Wire Line
	7900 4000 7900 4100
Wire Wire Line
	7900 4200 7900 4300
Connection ~ 7900 4300
Wire Wire Line
	7900 4300 7900 4400
Connection ~ 7900 4400
Wire Wire Line
	7900 4400 7900 4500
Wire Wire Line
	7900 4600 7900 4700
Connection ~ 7900 4700
Wire Wire Line
	7900 4700 7900 4800
Connection ~ 7900 4800
Wire Wire Line
	7900 4800 7900 4900
Wire Wire Line
	7900 5000 7900 5100
Connection ~ 7900 5100
Wire Wire Line
	7900 5100 7900 5200
Connection ~ 7900 5200
Wire Wire Line
	7900 5200 7900 5300
Wire Wire Line
	7900 5400 7900 5500
Connection ~ 7900 5500
Wire Wire Line
	7900 5500 7900 5600
Connection ~ 7900 5600
Wire Wire Line
	7900 5600 7900 5700
Connection ~ 9900 5300
Connection ~ 9900 4800
Wire Wire Line
	10600 5400 10600 5500
Wire Wire Line
	10600 5300 10600 5400
Connection ~ 10600 5400
Wire Wire Line
	10600 4900 10600 4800
$Comp
L lbl_conn:Conn_02x100_Row_Letter_First-lbl_conn U1
U 2 1 5C15DCD7
P 10250 2200
F 0 "U1" H 10250 3865 50  0000 C CNN
F 1 "Conn_02x100_Row_Letter_First-lbl_conn" H 10250 -1450 50  0000 C CNN
F 2 "lbl_strips:Sullins_EdgeCard_CardSide_200_pbv3_carrier" H 10250 2200 50  0001 C CNN
F 3 "" H 10250 2200 50  0001 C CNN
	2    10250 2200
	1    0    0    -1  
$EndComp
Wire Wire Line
	9900 5300 9900 5400
Wire Wire Line
	9900 4900 9900 4800
Wire Wire Line
	9900 5400 9900 5500
Connection ~ 9900 5400
Text Label 8600 1500 0    50   ~ 0
VIN_RTN
Connection ~ 10600 5500
Wire Wire Line
	9900 4900 10600 4900
Wire Wire Line
	9900 5500 10600 5500
Wire Wire Line
	10600 5400 9900 5400
Connection ~ 10600 4900
Connection ~ 10600 4600
Wire Wire Line
	10600 5000 10600 5100
Connection ~ 10600 5200
Wire Wire Line
	10600 5600 10600 5700
Connection ~ 9900 4900
Connection ~ 9900 5500
Wire Wire Line
	9650 4500 9450 4500
Wire Wire Line
	9650 4400 9450 4400
Wire Wire Line
	9900 1200 9900 1300
Connection ~ 9900 1300
Wire Wire Line
	9900 1300 9900 1400
Connection ~ 9900 1400
Wire Wire Line
	9900 1400 9900 1500
Wire Wire Line
	9900 1600 9900 1700
Connection ~ 9900 1700
Wire Wire Line
	9900 1700 9900 1800
Connection ~ 9900 1800
Wire Wire Line
	9900 1800 9900 1900
Wire Wire Line
	9900 2000 9900 2100
Connection ~ 9900 2100
Wire Wire Line
	9900 2100 9900 2200
Connection ~ 9900 2200
Wire Wire Line
	9900 2200 9900 2300
Wire Wire Line
	9900 2400 9900 2500
Connection ~ 9900 2500
Wire Wire Line
	9900 2500 9900 2600
Connection ~ 9900 2600
Wire Wire Line
	9900 2600 9900 2700
Wire Wire Line
	9900 2800 9900 2900
Connection ~ 9900 2900
Wire Wire Line
	9900 2900 9900 3000
Connection ~ 9900 3000
Wire Wire Line
	9900 3000 9900 3100
Wire Wire Line
	9900 3200 9900 3300
Connection ~ 9900 3300
Wire Wire Line
	9900 3300 9900 3400
Connection ~ 9900 3400
Wire Wire Line
	9900 3400 9900 3500
Wire Wire Line
	9900 3600 9900 3700
Connection ~ 9900 3700
Wire Wire Line
	9900 3700 9900 3800
Connection ~ 9900 3800
Wire Wire Line
	9900 3800 9900 3900
Wire Wire Line
	9900 4000 9900 4100
Connection ~ 9900 4100
Wire Wire Line
	9900 4100 9900 4200
Connection ~ 9900 4200
Wire Wire Line
	9900 4200 9900 4300
Wire Wire Line
	10600 5600 10600 5500
Connection ~ 10600 5600
Wire Wire Line
	10600 5000 10600 4900
Connection ~ 10600 5000
Wire Wire Line
	9900 800  9900 900 
Connection ~ 9900 900 
Wire Wire Line
	9900 900  9900 1000
Connection ~ 9900 1000
Wire Wire Line
	9900 1000 9900 1100
NoConn ~ 8600 1200
NoConn ~ 8600 1300
Text Label 8600 2400 0    50   ~ 0
CMDin1_P
Text Label 8600 2500 0    50   ~ 0
CMDin1_N
Text Label 8600 2600 0    50   ~ 0
CMDout1_P
Text Label 8600 2700 0    50   ~ 0
CMDout1_N
Text Label 8600 2900 0    50   ~ 0
HVOUT1
Text Label 8600 2800 0    50   ~ 0
HVOUT_RTN1
Text Label 8600 3000 0    50   ~ 0
COILp1
Text Label 8600 3100 0    50   ~ 0
COILn1
Wire Wire Line
	9900 5700 9900 5600
Connection ~ 9900 5600
Wire Wire Line
	9900 5600 9900 5500
Wire Wire Line
	9900 5600 10600 5600
Wire Wire Line
	10600 5700 9900 5700
Connection ~ 10600 5700
Connection ~ 9900 5700
Wire Wire Line
	9900 5100 9900 5000
Connection ~ 9900 5000
Wire Wire Line
	9900 5000 9900 4900
Connection ~ 9900 5100
Wire Wire Line
	9350 5200 9650 5200
$Comp
L power:GND #PWR07
U 1 1 5C3C2D47
P 9650 5200
F 0 "#PWR07" H 9650 4950 50  0001 C CNN
F 1 "GND" H 9655 5027 50  0000 C CNN
F 2 "" H 9650 5200 50  0001 C CNN
F 3 "" H 9650 5200 50  0001 C CNN
	1    9650 5200
	1    0    0    -1  
$EndComp
Connection ~ 9650 5200
Wire Wire Line
	9650 5200 9900 5200
$Comp
L power:PWR_FLAG #FLG01
U 1 1 5C3C2DBA
P 9350 5200
F 0 "#FLG01" H 9350 5275 50  0001 C CNN
F 1 "PWR_FLAG" H 9350 5373 50  0000 C CNN
F 2 "" H 9350 5200 50  0001 C CNN
F 3 "~" H 9350 5200 50  0001 C CNN
	1    9350 5200
	-1   0    0    1   
$EndComp
$Comp
L Mechanical:MountingHole H1
U 1 1 5C870A94
P 5350 2750
F 0 "H1" H 5450 2801 50  0000 L CNN
F 1 "MountingHole" H 5450 2710 50  0000 L CNN
F 2 "ECpowerboards:MountingHole_4.7mm" H 5350 2750 50  0001 C CNN
F 3 "~" H 5350 2750 50  0001 C CNN
	1    5350 2750
	1    0    0    -1  
$EndComp
$Comp
L Mechanical:MountingHole H2
U 1 1 5C8C99D7
P 5350 3050
F 0 "H2" H 5450 3101 50  0000 L CNN
F 1 "MountingHole_Pad" H 5450 3010 50  0000 L CNN
F 2 "ECpowerboards:MountingHole_4.7mm" H 5350 3050 50  0001 C CNN
F 3 "~" H 5350 3050 50  0001 C CNN
	1    5350 3050
	1    0    0    -1  
$EndComp
$Comp
L Mechanical:MountingHole H5
U 1 1 5C8DFE58
P 6250 2750
F 0 "H5" H 6350 2801 50  0000 L CNN
F 1 "MountingHole_Pad" H 6350 2710 50  0000 L CNN
F 2 "ECpowerboards:MountingHole_4.7mm" H 6250 2750 50  0001 C CNN
F 3 "~" H 6250 2750 50  0001 C CNN
	1    6250 2750
	1    0    0    -1  
$EndComp
$Comp
L Mechanical:MountingHole H6
U 1 1 5C8DFE5F
P 6250 3050
F 0 "H6" H 6350 3101 50  0000 L CNN
F 1 "MountingHole_Pad" H 6350 3010 50  0000 L CNN
F 2 "ECpowerboards:MountingHole_4.7mm" H 6250 3050 50  0001 C CNN
F 3 "~" H 6250 3050 50  0001 C CNN
	1    6250 3050
	1    0    0    -1  
$EndComp
$Comp
L Mechanical:MountingHole H13
U 1 1 5C8F706F
P 5350 4700
F 0 "H13" H 5450 4746 50  0000 L CNN
F 1 "MountingHole" H 5450 4655 50  0000 L CNN
F 2 "Mounting_Holes:MountingHole_3.2mm_M3" H 5350 4700 50  0001 C CNN
F 3 "~" H 5350 4700 50  0001 C CNN
	1    5350 4700
	1    0    0    -1  
$EndComp
$Comp
L Mechanical:MountingHole H9
U 1 1 5C950191
P 5350 4000
F 0 "H9" H 5450 4046 50  0000 L CNN
F 1 "MountingHole" H 5450 3955 50  0000 L CNN
F 2 "Mounting_Holes:MountingHole_3.2mm_M3" H 5350 4000 50  0001 C CNN
F 3 "~" H 5350 4000 50  0001 C CNN
	1    5350 4000
	1    0    0    -1  
$EndComp
$Comp
L Mechanical:MountingHole H14
U 1 1 5C950287
P 5350 4875
F 0 "H14" H 5450 4921 50  0000 L CNN
F 1 "MountingHole" H 5450 4830 50  0000 L CNN
F 2 "Mounting_Holes:MountingHole_3.2mm_M3" H 5350 4875 50  0001 C CNN
F 3 "~" H 5350 4875 50  0001 C CNN
	1    5350 4875
	1    0    0    -1  
$EndComp
$Comp
L Mechanical:MountingHole H10
U 1 1 5C95028D
P 5350 4175
F 0 "H10" H 5450 4221 50  0000 L CNN
F 1 "MountingHole" H 5450 4130 50  0000 L CNN
F 2 "Mounting_Holes:MountingHole_3.2mm_M3" H 5350 4175 50  0001 C CNN
F 3 "~" H 5350 4175 50  0001 C CNN
	1    5350 4175
	1    0    0    -1  
$EndComp
$Comp
L Mechanical:MountingHole H16
U 1 1 5C96671D
P 6250 4000
F 0 "H16" H 6350 4046 50  0000 L CNN
F 1 "MountingHole" H 6350 3955 50  0000 L CNN
F 2 "Mounting_Holes:MountingHole_3.2mm_M3" H 6250 4000 50  0001 C CNN
F 3 "~" H 6250 4000 50  0001 C CNN
	1    6250 4000
	1    0    0    -1  
$EndComp
$Comp
L Mechanical:MountingHole H11
U 1 1 5C966723
P 5350 4350
F 0 "H11" H 5450 4396 50  0000 L CNN
F 1 "MountingHole" H 5450 4305 50  0000 L CNN
F 2 "Mounting_Holes:MountingHole_3.2mm_M3" H 5350 4350 50  0001 C CNN
F 3 "~" H 5350 4350 50  0001 C CNN
	1    5350 4350
	1    0    0    -1  
$EndComp
$Comp
L Mechanical:MountingHole H17
U 1 1 5C966729
P 6250 4175
F 0 "H17" H 6350 4221 50  0000 L CNN
F 1 "MountingHole" H 6350 4130 50  0000 L CNN
F 2 "Mounting_Holes:MountingHole_3.2mm_M3" H 6250 4175 50  0001 C CNN
F 3 "~" H 6250 4175 50  0001 C CNN
	1    6250 4175
	1    0    0    -1  
$EndComp
$Comp
L Mechanical:MountingHole H12
U 1 1 5C96672F
P 5350 4525
F 0 "H12" H 5450 4571 50  0000 L CNN
F 1 "MountingHole" H 5450 4480 50  0000 L CNN
F 2 "Mounting_Holes:MountingHole_3.2mm_M3" H 5350 4525 50  0001 C CNN
F 3 "~" H 5350 4525 50  0001 C CNN
	1    5350 4525
	1    0    0    -1  
$EndComp
$Comp
L Mechanical:MountingHole H18
U 1 1 5C7F5E65
P 6250 4350
F 0 "H18" H 6350 4396 50  0000 L CNN
F 1 "MountingHole" H 6350 4305 50  0000 L CNN
F 2 "Mounting_Holes:MountingHole_3.2mm_M3" H 6250 4350 50  0001 C CNN
F 3 "~" H 6250 4350 50  0001 C CNN
	1    6250 4350
	1    0    0    -1  
$EndComp
$Comp
L Mechanical:MountingHole H20
U 1 1 5C7F5E6B
P 6250 4700
F 0 "H20" H 6350 4746 50  0000 L CNN
F 1 "MountingHole" H 6350 4655 50  0000 L CNN
F 2 "Mounting_Holes:MountingHole_3.2mm_M3" H 6250 4700 50  0001 C CNN
F 3 "~" H 6250 4700 50  0001 C CNN
	1    6250 4700
	1    0    0    -1  
$EndComp
$Comp
L Mechanical:MountingHole H19
U 1 1 5C7F5E71
P 6250 4525
F 0 "H19" H 6350 4571 50  0000 L CNN
F 1 "MountingHole" H 6350 4480 50  0000 L CNN
F 2 "Mounting_Holes:MountingHole_3.2mm_M3" H 6250 4525 50  0001 C CNN
F 3 "~" H 6250 4525 50  0001 C CNN
	1    6250 4525
	1    0    0    -1  
$EndComp
$Comp
L Mechanical:MountingHole H21
U 1 1 5C7F5E77
P 6250 4875
F 0 "H21" H 6350 4921 50  0000 L CNN
F 1 "MountingHole" H 6350 4830 50  0000 L CNN
F 2 "Mounting_Holes:MountingHole_3.2mm_M3" H 6250 4875 50  0001 C CNN
F 3 "~" H 6250 4875 50  0001 C CNN
	1    6250 4875
	1    0    0    -1  
$EndComp
Text Notes 5250 2600 0    50   ~ 0
SMD Nut For Bar Attachement
Text Notes 5250 3900 0    50   ~ 0
Vacuum Plate Mounting
$Comp
L Mechanical:MountingHole H15
U 1 1 5C82EB9C
P 5350 5050
F 0 "H15" H 5450 5096 50  0000 L CNN
F 1 "MountingHole" H 5450 5005 50  0000 L CNN
F 2 "Mounting_Holes:MountingHole_3.2mm_M3" H 5350 5050 50  0001 C CNN
F 3 "~" H 5350 5050 50  0001 C CNN
	1    5350 5050
	1    0    0    -1  
$EndComp
$Comp
L Mechanical:MountingHole H22
U 1 1 5C82EBA2
P 6250 5050
F 0 "H22" H 6350 5096 50  0000 L CNN
F 1 "MountingHole" H 6350 5005 50  0000 L CNN
F 2 "Mounting_Holes:MountingHole_3.2mm_M3" H 6250 5050 50  0001 C CNN
F 3 "~" H 6250 5050 50  0001 C CNN
	1    6250 5050
	1    0    0    -1  
$EndComp
$Comp
L Mechanical:MountingHole H23
U 1 1 5C871F44
P 7350 6150
F 0 "H23" H 7450 6196 50  0000 L CNN
F 1 "MountingHole" H 7450 6105 50  0000 L CNN
F 2 "Mounting_Holes:MountingHole_3.2mm_M3" H 7350 6150 50  0001 C CNN
F 3 "~" H 7350 6150 50  0001 C CNN
	1    7350 6150
	1    0    0    -1  
$EndComp
$Comp
L Mechanical:MountingHole H24
U 1 1 5C871F4A
P 7350 6350
F 0 "H24" H 7450 6396 50  0000 L CNN
F 1 "MountingHole" H 7450 6305 50  0000 L CNN
F 2 "Mounting_Holes:MountingHole_3.2mm_M3" H 7350 6350 50  0001 C CNN
F 3 "~" H 7350 6350 50  0001 C CNN
	1    7350 6350
	1    0    0    -1  
$EndComp
$Comp
L Mechanical:MountingHole H25
U 1 1 5C871F50
P 8250 6150
F 0 "H25" H 8350 6196 50  0000 L CNN
F 1 "MountingHole" H 8350 6105 50  0000 L CNN
F 2 "Mounting_Holes:MountingHole_3.2mm_M3" H 8250 6150 50  0001 C CNN
F 3 "~" H 8250 6150 50  0001 C CNN
	1    8250 6150
	1    0    0    -1  
$EndComp
$Comp
L Mechanical:MountingHole H26
U 1 1 5C871F56
P 8250 6350
F 0 "H26" H 8350 6396 50  0000 L CNN
F 1 "MountingHole" H 8350 6305 50  0000 L CNN
F 2 "Mounting_Holes:MountingHole_3.2mm_M3" H 8250 6350 50  0001 C CNN
F 3 "~" H 8250 6350 50  0001 C CNN
	1    8250 6350
	1    0    0    -1  
$EndComp
Text Notes 7250 6050 0    50   ~ 0
Pass-through Mounting
$Comp
L Mechanical:MountingHole H3
U 1 1 5C875D02
P 5350 3350
F 0 "H3" H 5450 3401 50  0000 L CNN
F 1 "MountingHole_Pad" H 5450 3310 50  0000 L CNN
F 2 "ECpowerboards:MountingHole_4.7mm" H 5350 3350 50  0001 C CNN
F 3 "~" H 5350 3350 50  0001 C CNN
	1    5350 3350
	1    0    0    -1  
$EndComp
$Comp
L Mechanical:MountingHole H7
U 1 1 5C875D0E
P 6250 3350
F 0 "H7" H 6350 3401 50  0000 L CNN
F 1 "MountingHole_Pad" H 6350 3310 50  0000 L CNN
F 2 "ECpowerboards:MountingHole_4.7mm" H 6250 3350 50  0001 C CNN
F 3 "~" H 6250 3350 50  0001 C CNN
	1    6250 3350
	1    0    0    -1  
$EndComp
$Comp
L Mechanical:MountingHole H8
U 1 1 5C875D15
P 6250 3650
F 0 "H8" H 6350 3701 50  0000 L CNN
F 1 "MountingHole_Pad" H 6350 3610 50  0000 L CNN
F 2 "ECpowerboards:MountingHole_4.7mm" H 6250 3650 50  0001 C CNN
F 3 "~" H 6250 3650 50  0001 C CNN
	1    6250 3650
	1    0    0    -1  
$EndComp
$Sheet
S 9050 6100 800  250 
U 5E3B5E4E
F0 "Alignment Resistors" 50
F1 "Alignment_resistors.sch" 50
F2 "COILn0" I L 9050 6150 50 
F3 "COILn2" I L 9050 6250 50 
F4 "COILn4" I L 9050 6350 50 
F5 "COILn8" I R 9850 6150 50 
F6 "COILn9" I R 9850 6250 50 
F7 "COILn7" I R 9850 6350 50 
$EndSheet
$Sheet
S 10300 6050 700  400 
U 5E4224DF
F0 "RGB" 50
F1 "RGB.sch" 50
F2 "SDA" I L 10300 6150 50 
F3 "SCL" I L 10300 6250 50 
F4 "GND" I L 10300 6350 50 
F5 "3V3" I R 11000 6200 50 
F6 "12V" I R 11000 6300 50 
$EndSheet
Wire Wire Line
	10300 6150 10250 6150
Wire Wire Line
	10300 6250 10250 6250
$Comp
L power:+3V3 #PWR?
U 1 1 5E4D5C7F
P 11100 6150
AR Path="/5C020D45/5E4D5C7F" Ref="#PWR?"  Part="1" 
AR Path="/5C05860C/5E4D5C7F" Ref="#PWR?"  Part="1" 
AR Path="/5C05AC9E/5E4D5C7F" Ref="#PWR?"  Part="1" 
AR Path="/5C05D338/5E4D5C7F" Ref="#PWR?"  Part="1" 
AR Path="/5C05D354/5E4D5C7F" Ref="#PWR?"  Part="1" 
AR Path="/5C05F9F6/5E4D5C7F" Ref="#PWR?"  Part="1" 
AR Path="/5C0620A6/5E4D5C7F" Ref="#PWR?"  Part="1" 
AR Path="/5C0620C2/5E4D5C7F" Ref="#PWR?"  Part="1" 
AR Path="/5C0620DE/5E4D5C7F" Ref="#PWR?"  Part="1" 
AR Path="/5C0620FA/5E4D5C7F" Ref="#PWR?"  Part="1" 
AR Path="/5C062116/5E4D5C7F" Ref="#PWR?"  Part="1" 
AR Path="/5E4D5C7F" Ref="#PWR0163"  Part="1" 
F 0 "#PWR0163" H 11100 6000 50  0001 C CNN
F 1 "+3V3" H 11115 6323 50  0000 C CNN
F 2 "" H 11100 6150 50  0001 C CNN
F 3 "" H 11100 6150 50  0001 C CNN
	1    11100 6150
	1    0    0    -1  
$EndComp
Wire Wire Line
	11100 6150 11100 6200
Wire Wire Line
	11000 6200 11100 6200
$Comp
L power:+12V #PWR0177
U 1 1 5E4EE046
P 11150 5900
F 0 "#PWR0177" H 11150 5750 50  0001 C CNN
F 1 "+12V" H 11165 6073 50  0000 C CNN
F 2 "" H 11150 5900 50  0001 C CNN
F 3 "" H 11150 5900 50  0001 C CNN
	1    11150 5900
	1    0    0    -1  
$EndComp
Wire Wire Line
	11150 5900 11150 6300
Wire Wire Line
	11000 6300 11150 6300
Wire Wire Line
	10200 6350 10300 6350
Text Label 10250 6150 2    50   ~ 0
I2C_SDA
Text Label 10250 6250 2    50   ~ 0
I2C_SCL
$Comp
L power:GNDPWR #PWR0178
U 1 1 5E5472BC
P 10200 6400
F 0 "#PWR0178" H 10200 6200 50  0001 C CNN
F 1 "GNDPWR" H 10204 6246 50  0000 C CNN
F 2 "" H 10200 6350 50  0001 C CNN
F 3 "" H 10200 6350 50  0001 C CNN
	1    10200 6400
	1    0    0    -1  
$EndComp
Wire Wire Line
	10200 6350 10200 6400
$Comp
L Mechanical:MountingHole H4
U 1 1 5C875D08
P 5350 3650
F 0 "H4" H 5450 3701 50  0000 L CNN
F 1 "MountingHole_Pad" H 5450 3610 50  0000 L CNN
F 2 "ECpowerboards:MountingHole_4.7mm" H 5350 3650 50  0001 C CNN
F 3 "~" H 5350 3650 50  0001 C CNN
	1    5350 3650
	1    0    0    -1  
$EndComp
Text Label 9050 6150 0    50   ~ 0
COILn0
Text Label 9050 6250 0    50   ~ 0
COILn2
Text Label 9050 6350 0    50   ~ 0
COILn4
Text Label 9850 6150 2    50   ~ 0
COILn8
Text Label 9850 6250 2    50   ~ 0
COILn9
$Comp
L Device:Antenna_Chip AE101
U 1 1 5E88E778
P 7250 5450
F 0 "AE101" H 7430 5577 50  0000 L CNN
F 1 "Antenna_Chip" H 7430 5486 50  0000 L CNN
F 2 "ECpowerboards:RFID" H 7150 5625 50  0001 C CNN
F 3 "~" H 7150 5625 50  0001 C CNN
F 4 "C99925" H 7250 5450 50  0001 C CNN "LCSC"
	1    7250 5450
	1    0    0    -1  
$EndComp
Text Label 9850 6350 2    50   ~ 0
COILn7
Wire Bus Line
	5050 6150 5050 6500
Wire Bus Line
	6550 1350 6550 2350
Wire Bus Line
	5500 1350 5500 2350
$EndSCHEMATC
