EESchema Schematic File Version 4
EELAYER 30 0
EELAYER END
$Descr A4 11693 8268
encoding utf-8
Sheet 14 14
Title ""
Date ""
Rev ""
Comp ""
Comment1 ""
Comment2 ""
Comment3 ""
Comment4 ""
$EndDescr
Text HLabel 3900 4300 2    50   Input ~ 0
SDA
Text HLabel 3900 4200 2    50   Input ~ 0
SCL
Text HLabel 2900 4900 0    50   Input ~ 0
GND
Text HLabel 2950 2950 0    50   Input ~ 0
3V3
$Comp
L power:+3V3 #PWR01402
U 1 1 5E425026
P 3150 2800
F 0 "#PWR01402" H 3150 2650 50  0001 C CNN
F 1 "+3V3" H 3165 2973 50  0000 C CNN
F 2 "" H 3150 2800 50  0001 C CNN
F 3 "" H 3150 2800 50  0001 C CNN
	1    3150 2800
	1    0    0    -1  
$EndComp
$Comp
L power:+12V #PWR01405
U 1 1 5E4254F4
P 4600 2250
F 0 "#PWR01405" H 4600 2100 50  0001 C CNN
F 1 "+12V" H 4615 2423 50  0000 C CNN
F 2 "" H 4600 2250 50  0001 C CNN
F 3 "" H 4600 2250 50  0001 C CNN
	1    4600 2250
	1    0    0    -1  
$EndComp
$Comp
L power:+5V #PWR01408
U 1 1 5E425634
P 5550 2250
F 0 "#PWR01408" H 5550 2100 50  0001 C CNN
F 1 "+5V" H 5565 2423 50  0000 C CNN
F 2 "" H 5550 2250 50  0001 C CNN
F 3 "" H 5550 2250 50  0001 C CNN
	1    5550 2250
	1    0    0    -1  
$EndComp
$Comp
L Regulator_Linear:AZ1117-5.0 U1402
U 1 1 5E425B69
P 5100 2350
F 0 "U1402" H 5100 2592 50  0000 C CNN
F 1 "AZ1117-5.0" H 5100 2501 50  0000 C CNN
F 2 "TO_SOT_Packages_SMD:SOT-223-3_TabPin2" H 5100 2600 50  0001 C CIN
F 3 "https://www.diodes.com/assets/Datasheets/AZ1117.pdf" H 5100 2350 50  0001 C CNN
F 4 "C6187" H 5100 2350 50  0001 C CNN "LCSC"
	1    5100 2350
	1    0    0    -1  
$EndComp
Wire Wire Line
	3150 2800 3150 2900
Wire Wire Line
	2950 2950 3150 2950
Connection ~ 3150 2950
Wire Wire Line
	3150 2950 3150 3150
Wire Wire Line
	2900 4900 3050 4900
Connection ~ 3050 4900
Wire Wire Line
	3050 4900 3050 4950
Text HLabel 4350 2350 0    50   Input ~ 0
12V
Wire Wire Line
	4350 2350 4600 2350
Wire Wire Line
	4600 2250 4600 2350
Connection ~ 4600 2350
Wire Wire Line
	5400 2350 5550 2350
Wire Wire Line
	5550 2350 5550 2250
Wire Wire Line
	5100 2650 5100 2700
$Comp
L LED:WS2812B D1401
U 1 1 5E427F15
P 5050 3600
F 0 "D1401" H 5394 3646 50  0000 L CNN
F 1 "WS2812B" H 5394 3555 50  0000 L CNN
F 2 "LEDs:LED_WS2812B-PLCC4" H 5100 3300 50  0001 L TNN
F 3 "https://cdn-shop.adafruit.com/datasheets/WS2812B.pdf" H 5150 3225 50  0001 L TNN
F 4 "C114586" H 5050 3600 50  0001 C CNN "LCSC"
	1    5050 3600
	1    0    0    -1  
$EndComp
$Comp
L LED:WS2812B D1403
U 1 1 5E428970
P 5950 3600
F 0 "D1403" H 6294 3646 50  0000 L CNN
F 1 "WS2812B" H 6294 3555 50  0000 L CNN
F 2 "LEDs:LED_WS2812B-PLCC4" H 6000 3300 50  0001 L TNN
F 3 "https://cdn-shop.adafruit.com/datasheets/WS2812B.pdf" H 6050 3225 50  0001 L TNN
F 4 "C114586" H 5950 3600 50  0001 C CNN "LCSC"
	1    5950 3600
	1    0    0    -1  
$EndComp
$Comp
L LED:WS2812B D1405
U 1 1 5E429087
P 6850 3600
F 0 "D1405" H 7194 3646 50  0000 L CNN
F 1 "WS2812B" H 7194 3555 50  0000 L CNN
F 2 "LEDs:LED_WS2812B-PLCC4" H 6900 3300 50  0001 L TNN
F 3 "https://cdn-shop.adafruit.com/datasheets/WS2812B.pdf" H 6950 3225 50  0001 L TNN
F 4 "C114586" H 6850 3600 50  0001 C CNN "LCSC"
	1    6850 3600
	1    0    0    -1  
$EndComp
$Comp
L LED:WS2812B D1407
U 1 1 5E4294D1
P 7750 3600
F 0 "D1407" H 8094 3646 50  0000 L CNN
F 1 "WS2812B" H 8094 3555 50  0000 L CNN
F 2 "LEDs:LED_WS2812B-PLCC4" H 7800 3300 50  0001 L TNN
F 3 "https://cdn-shop.adafruit.com/datasheets/WS2812B.pdf" H 7850 3225 50  0001 L TNN
F 4 "C114586" H 7750 3600 50  0001 C CNN "LCSC"
	1    7750 3600
	1    0    0    -1  
$EndComp
$Comp
L LED:WS2812B D1409
U 1 1 5E42A76E
P 8650 3600
F 0 "D1409" H 8994 3646 50  0000 L CNN
F 1 "WS2812B" H 8994 3555 50  0000 L CNN
F 2 "LEDs:LED_WS2812B-PLCC4" H 8700 3300 50  0001 L TNN
F 3 "https://cdn-shop.adafruit.com/datasheets/WS2812B.pdf" H 8750 3225 50  0001 L TNN
F 4 "C114586" H 8650 3600 50  0001 C CNN "LCSC"
	1    8650 3600
	1    0    0    -1  
$EndComp
$Comp
L LED:WS2812B D1402
U 1 1 5E433E74
P 5050 4750
F 0 "D1402" H 5394 4796 50  0000 L CNN
F 1 "WS2812B" H 5394 4705 50  0000 L CNN
F 2 "LEDs:LED_WS2812B-PLCC4" H 5100 4450 50  0001 L TNN
F 3 "https://cdn-shop.adafruit.com/datasheets/WS2812B.pdf" H 5150 4375 50  0001 L TNN
F 4 "C114586" H 5050 4750 50  0001 C CNN "LCSC"
	1    5050 4750
	1    0    0    -1  
$EndComp
$Comp
L LED:WS2812B D1404
U 1 1 5E433E7A
P 5950 4750
F 0 "D1404" H 6294 4796 50  0000 L CNN
F 1 "WS2812B" H 6294 4705 50  0000 L CNN
F 2 "LEDs:LED_WS2812B-PLCC4" H 6000 4450 50  0001 L TNN
F 3 "https://cdn-shop.adafruit.com/datasheets/WS2812B.pdf" H 6050 4375 50  0001 L TNN
F 4 "C114586" H 5950 4750 50  0001 C CNN "LCSC"
	1    5950 4750
	1    0    0    -1  
$EndComp
$Comp
L LED:WS2812B D1406
U 1 1 5E433E80
P 6850 4750
F 0 "D1406" H 7194 4796 50  0000 L CNN
F 1 "WS2812B" H 7194 4705 50  0000 L CNN
F 2 "LEDs:LED_WS2812B-PLCC4" H 6900 4450 50  0001 L TNN
F 3 "https://cdn-shop.adafruit.com/datasheets/WS2812B.pdf" H 6950 4375 50  0001 L TNN
F 4 "C114586" H 6850 4750 50  0001 C CNN "LCSC"
	1    6850 4750
	1    0    0    -1  
$EndComp
$Comp
L LED:WS2812B D1408
U 1 1 5E433E86
P 7750 4750
F 0 "D1408" H 8094 4796 50  0000 L CNN
F 1 "WS2812B" H 8094 4705 50  0000 L CNN
F 2 "LEDs:LED_WS2812B-PLCC4" H 7800 4450 50  0001 L TNN
F 3 "https://cdn-shop.adafruit.com/datasheets/WS2812B.pdf" H 7850 4375 50  0001 L TNN
F 4 "C114586" H 7750 4750 50  0001 C CNN "LCSC"
	1    7750 4750
	1    0    0    -1  
$EndComp
$Comp
L LED:WS2812B D1410
U 1 1 5E433E8C
P 8650 4750
F 0 "D1410" H 8994 4796 50  0000 L CNN
F 1 "WS2812B" H 8994 4705 50  0000 L CNN
F 2 "LEDs:LED_WS2812B-PLCC4" H 8700 4450 50  0001 L TNN
F 3 "https://cdn-shop.adafruit.com/datasheets/WS2812B.pdf" H 8750 4375 50  0001 L TNN
F 4 "C114586" H 8650 4750 50  0001 C CNN "LCSC"
	1    8650 4750
	1    0    0    -1  
$EndComp
Wire Wire Line
	5050 3900 5950 3900
Connection ~ 5950 3900
Connection ~ 6850 3900
Wire Wire Line
	6850 3900 7750 3900
Connection ~ 7750 3900
Wire Wire Line
	7750 3900 8650 3900
Wire Wire Line
	5050 5050 5950 5050
Connection ~ 5950 5050
Wire Wire Line
	5950 5050 6550 5050
Connection ~ 6850 5050
Wire Wire Line
	6850 5050 7750 5050
Connection ~ 7750 5050
Wire Wire Line
	7750 5050 8650 5050
Wire Wire Line
	8950 3600 8950 4250
Wire Wire Line
	8950 4250 4750 4250
Wire Wire Line
	4750 4250 4750 4750
Wire Wire Line
	5050 4450 5950 4450
Wire Wire Line
	9150 4450 9150 3300
Wire Wire Line
	9150 3300 8650 3300
Connection ~ 5950 4450
Wire Wire Line
	5950 4450 6850 4450
Connection ~ 6850 4450
Wire Wire Line
	6850 4450 7750 4450
Connection ~ 7750 4450
Wire Wire Line
	7750 4450 8650 4450
Connection ~ 8650 4450
Wire Wire Line
	8650 4450 9150 4450
Connection ~ 5950 3300
Wire Wire Line
	5950 3300 5050 3300
Connection ~ 6850 3300
Wire Wire Line
	6850 3300 6550 3300
Connection ~ 7750 3300
Wire Wire Line
	7750 3300 6850 3300
Connection ~ 8650 3300
Wire Wire Line
	8650 3300 7750 3300
Wire Wire Line
	6550 2500 6550 3300
Connection ~ 6550 3300
Wire Wire Line
	6550 3300 5950 3300
Wire Wire Line
	5550 2400 5550 2350
Connection ~ 5550 2350
$Comp
L power:+3V3 #PWR01410
U 1 1 5E439FC5
P 5850 2600
F 0 "#PWR01410" H 5850 2450 50  0001 C CNN
F 1 "+3V3" H 5865 2773 50  0000 C CNN
F 2 "" H 5850 2600 50  0001 C CNN
F 3 "" H 5850 2600 50  0001 C CNN
	1    5850 2600
	1    0    0    -1  
$EndComp
Wire Wire Line
	4750 3600 4150 3600
Wire Wire Line
	4150 3600 4150 4100
$Comp
L Device:C C1403
U 1 1 5E442641
P 4600 2500
F 0 "C1403" H 4715 2546 50  0000 L CNN
F 1 "100n" H 4715 2455 50  0000 L CNN
F 2 "Capacitors_SMD:C_0805" H 4638 2350 50  0001 C CNN
F 3 "~" H 4600 2500 50  0001 C CNN
F 4 "C49678" H 4600 2500 50  0001 C CNN "LCSC"
	1    4600 2500
	1    0    0    -1  
$EndComp
$Comp
L Device:C C1404
U 1 1 5E44398C
P 5550 2550
F 0 "C1404" H 5665 2596 50  0000 L CNN
F 1 "100n" H 5665 2505 50  0000 L CNN
F 2 "Capacitors_SMD:C_0805" H 5588 2400 50  0001 C CNN
F 3 "~" H 5550 2550 50  0001 C CNN
F 4 "C49678" H 5550 2550 50  0001 C CNN "LCSC"
	1    5550 2550
	1    0    0    -1  
$EndComp
Wire Wire Line
	5350 3600 5650 3600
Wire Wire Line
	6250 3600 6550 3600
Wire Wire Line
	7150 3600 7450 3600
Wire Wire Line
	8050 3600 8350 3600
Wire Wire Line
	5350 4750 5650 4750
Wire Wire Line
	6250 4750 6550 4750
Wire Wire Line
	7150 4750 7450 4750
Wire Wire Line
	8050 4750 8350 4750
Wire Wire Line
	6100 2400 5550 2400
Connection ~ 5550 2400
$Comp
L Device:C C1402
U 1 1 5E44F888
P 3450 2950
F 0 "C1402" H 3565 2996 50  0000 L CNN
F 1 "100n" H 3565 2905 50  0000 L CNN
F 2 "Capacitors_SMD:C_0805" H 3488 2800 50  0001 C CNN
F 3 "~" H 3450 2950 50  0001 C CNN
F 4 "C49678" H 3450 2950 50  0001 C CNN "LCSC"
	1    3450 2950
	1    0    0    -1  
$EndComp
Wire Wire Line
	3450 2800 3150 2800
Connection ~ 3150 2800
Wire Wire Line
	4600 2350 4800 2350
$Comp
L power:GNDPWR #PWR?
U 1 1 5E56175D
P 3050 4950
AR Path="/5E56175D" Ref="#PWR?"  Part="1" 
AR Path="/5E4224DF/5E56175D" Ref="#PWR0179"  Part="1" 
F 0 "#PWR0179" H 3050 4750 50  0001 C CNN
F 1 "GNDPWR" H 3054 4796 50  0000 C CNN
F 2 "" H 3050 4900 50  0001 C CNN
F 3 "" H 3050 4900 50  0001 C CNN
	1    3050 4950
	1    0    0    -1  
$EndComp
$Comp
L power:GNDPWR #PWR?
U 1 1 5E562C4B
P 3450 3100
AR Path="/5E562C4B" Ref="#PWR?"  Part="1" 
AR Path="/5E4224DF/5E562C4B" Ref="#PWR0180"  Part="1" 
F 0 "#PWR0180" H 3450 2900 50  0001 C CNN
F 1 "GNDPWR" H 3454 2946 50  0000 C CNN
F 2 "" H 3450 3050 50  0001 C CNN
F 3 "" H 3450 3050 50  0001 C CNN
	1    3450 3100
	1    0    0    -1  
$EndComp
$Comp
L power:GNDPWR #PWR?
U 1 1 5E5642DD
P 4600 2650
AR Path="/5E5642DD" Ref="#PWR?"  Part="1" 
AR Path="/5E4224DF/5E5642DD" Ref="#PWR0181"  Part="1" 
F 0 "#PWR0181" H 4600 2450 50  0001 C CNN
F 1 "GNDPWR" H 4604 2496 50  0000 C CNN
F 2 "" H 4600 2600 50  0001 C CNN
F 3 "" H 4600 2600 50  0001 C CNN
	1    4600 2650
	1    0    0    -1  
$EndComp
$Comp
L power:GNDPWR #PWR?
U 1 1 5E565870
P 5100 2700
AR Path="/5E565870" Ref="#PWR?"  Part="1" 
AR Path="/5E4224DF/5E565870" Ref="#PWR0182"  Part="1" 
F 0 "#PWR0182" H 5100 2500 50  0001 C CNN
F 1 "GNDPWR" H 5104 2546 50  0000 C CNN
F 2 "" H 5100 2650 50  0001 C CNN
F 3 "" H 5100 2650 50  0001 C CNN
	1    5100 2700
	1    0    0    -1  
$EndComp
$Comp
L power:GNDPWR #PWR?
U 1 1 5E568037
P 5550 2700
AR Path="/5E568037" Ref="#PWR?"  Part="1" 
AR Path="/5E4224DF/5E568037" Ref="#PWR0183"  Part="1" 
F 0 "#PWR0183" H 5550 2500 50  0001 C CNN
F 1 "GNDPWR" H 5554 2546 50  0000 C CNN
F 2 "" H 5550 2650 50  0001 C CNN
F 3 "" H 5550 2650 50  0001 C CNN
	1    5550 2700
	1    0    0    -1  
$EndComp
Wire Wire Line
	5950 3900 6450 3900
$Comp
L power:GNDPWR #PWR?
U 1 1 5E5694A2
P 6450 3900
AR Path="/5E5694A2" Ref="#PWR?"  Part="1" 
AR Path="/5E4224DF/5E5694A2" Ref="#PWR0184"  Part="1" 
F 0 "#PWR0184" H 6450 3700 50  0001 C CNN
F 1 "GNDPWR" H 6454 3746 50  0000 C CNN
F 2 "" H 6450 3850 50  0001 C CNN
F 3 "" H 6450 3850 50  0001 C CNN
	1    6450 3900
	1    0    0    -1  
$EndComp
Connection ~ 6450 3900
Wire Wire Line
	6450 3900 6850 3900
$Comp
L power:GNDPWR #PWR?
U 1 1 5E56CC6E
P 6550 5050
AR Path="/5E56CC6E" Ref="#PWR?"  Part="1" 
AR Path="/5E4224DF/5E56CC6E" Ref="#PWR0185"  Part="1" 
F 0 "#PWR0185" H 6550 4850 50  0001 C CNN
F 1 "GNDPWR" H 6554 4896 50  0000 C CNN
F 2 "" H 6550 5000 50  0001 C CNN
F 3 "" H 6550 5000 50  0001 C CNN
	1    6550 5050
	1    0    0    -1  
$EndComp
Connection ~ 6550 5050
Wire Wire Line
	6550 5050 6850 5050
$Comp
L power:GNDPWR #PWR?
U 1 1 5E5E06AB
P 4500 4450
AR Path="/5E5E06AB" Ref="#PWR?"  Part="1" 
AR Path="/5E4224DF/5E5E06AB" Ref="#PWR01403"  Part="1" 
F 0 "#PWR01403" H 4500 4250 50  0001 C CNN
F 1 "GNDPWR" H 4504 4296 50  0000 C CNN
F 2 "" H 4500 4400 50  0001 C CNN
F 3 "" H 4500 4400 50  0001 C CNN
	1    4500 4450
	1    0    0    -1  
$EndComp
$Comp
L MCU_ST_STM32F0:STM32F070F6Px U1401
U 1 1 5E7B2842
P 3250 3900
F 0 "U1401" H 3200 3011 50  0000 C CNN
F 1 "STM32F070F6Px" H 3200 2920 50  0000 C CNN
F 2 "Housings_SSOP:TSSOP-20_4.4x6.5mm_Pitch0.65mm" H 2650 3200 50  0001 R CNN
F 3 "http://www.st.com/st-web-ui/static/active/en/resource/technical/document/datasheet/DM00141386.pdf" H 3250 3900 50  0001 C CNN
F 4 "C86951" H 3250 3900 50  0001 C CNN "LCSC"
	1    3250 3900
	1    0    0    -1  
$EndComp
Wire Wire Line
	3050 4700 3050 4850
Wire Wire Line
	2550 3400 2050 3400
Wire Wire Line
	3050 3150 3050 3200
Wire Wire Line
	3050 3150 3150 3150
Connection ~ 3150 3150
Wire Wire Line
	3150 3150 3150 3200
Wire Wire Line
	3850 4100 4150 4100
Wire Wire Line
	4450 4400 4500 4400
Wire Wire Line
	4500 4400 4500 4450
Wire Wire Line
	3850 4200 4450 4200
Wire Wire Line
	3850 4300 4450 4300
Wire Wire Line
	2050 3400 2050 3250
Wire Wire Line
	2050 2900 3150 2900
Connection ~ 3150 2900
Wire Wire Line
	3150 2900 3150 2950
$Comp
L Device:R R1402
U 1 1 5E7DC064
P 1850 3750
F 0 "R1402" H 1920 3796 50  0000 L CNN
F 1 "NP" H 1920 3705 50  0000 L CNN
F 2 "Resistors_SMD:R_0805" V 1780 3750 50  0001 C CNN
F 3 "~" H 1850 3750 50  0001 C CNN
	1    1850 3750
	1    0    0    -1  
$EndComp
Wire Wire Line
	2550 3600 1850 3600
Wire Wire Line
	1850 3550 1850 3600
Connection ~ 1850 3600
Wire Wire Line
	1850 3250 2050 3250
Connection ~ 2050 3250
Wire Wire Line
	2050 3250 2050 2900
Wire Wire Line
	1850 3900 1850 4850
Wire Wire Line
	1850 4850 3050 4850
Connection ~ 3050 4850
Wire Wire Line
	3050 4850 3050 4900
$Comp
L Device:R R1401
U 1 1 5E7DB8A5
P 1850 3400
F 0 "R1401" H 1920 3446 50  0000 L CNN
F 1 "10k" H 1920 3355 50  0000 L CNN
F 2 "Resistors_SMD:R_0805" V 1780 3400 50  0001 C CNN
F 3 "~" H 1850 3400 50  0001 C CNN
F 4 "C17414" H 1850 3400 50  0001 C CNN "LCSC"
	1    1850 3400
	1    0    0    -1  
$EndComp
$Comp
L Connector:Conn_01x03_Male J1402
U 1 1 5E84C60A
P 4250 4300
F 0 "J1402" H 4358 4581 50  0000 C CNN
F 1 "Conn_01x03_Male" H 4358 4490 50  0000 C CNN
F 2 "Pin_Headers:Pin_Header_Straight_1x03_Pitch2.54mm_SMD_Pin1Left" H 4250 4300 50  0001 C CNN
F 3 "~" H 4250 4300 50  0001 C CNN
	1    4250 4300
	1    0    0    -1  
$EndComp
$Comp
L Device:R R1403
U 1 1 5E85598E
P 6200 2650
F 0 "R1403" H 6130 2604 50  0000 R CNN
F 1 "NP" H 6130 2695 50  0000 R CNN
F 2 "Resistors_SMD:R_0805" V 6130 2650 50  0001 C CNN
F 3 "~" H 6200 2650 50  0001 C CNN
F 4 "do not populate" H 6200 2650 50  0001 C CNN "LCSC"
	1    6200 2650
	1    0    0    1   
$EndComp
$Comp
L Device:R R1404
U 1 1 5E857853
P 6250 2350
F 0 "R1404" H 6180 2304 50  0000 R CNN
F 1 "0R" H 6180 2395 50  0000 R CNN
F 2 "Resistors_SMD:R_0805" V 6180 2350 50  0001 C CNN
F 3 "~" H 6250 2350 50  0001 C CNN
F 4 "C17477" H 6250 2350 50  0001 C CNN "LCSC"
	1    6250 2350
	1    0    0    1   
$EndComp
Wire Wire Line
	6200 2500 6250 2500
Wire Wire Line
	6200 2800 6200 2600
Wire Wire Line
	5850 2600 6200 2600
Connection ~ 6250 2500
Wire Wire Line
	6250 2500 6550 2500
Wire Wire Line
	6250 2200 6100 2200
Wire Wire Line
	6100 2200 6100 2400
$EndSCHEMATC
