G04 #@! TF.GenerationSoftware,KiCad,Pcbnew,7.0.1*
G04 #@! TF.CreationDate,2023-06-28T14:22:09+02:00*
G04 #@! TF.ProjectId,R01_carrier,5230315f-6361-4727-9269-65722e6b6963,rev?*
G04 #@! TF.SameCoordinates,Original*
G04 #@! TF.FileFunction,Paste,Top*
G04 #@! TF.FilePolarity,Positive*
%FSLAX46Y46*%
G04 Gerber Fmt 4.6, Leading zero omitted, Abs format (unit mm)*
G04 Created by KiCad (PCBNEW 7.0.1) date 2023-06-28 14:22:09*
%MOMM*%
%LPD*%
G01*
G04 APERTURE LIST*
G04 Aperture macros list*
%AMRoundRect*
0 Rectangle with rounded corners*
0 $1 Rounding radius*
0 $2 $3 $4 $5 $6 $7 $8 $9 X,Y pos of 4 corners*
0 Add a 4 corners polygon primitive as box body*
4,1,4,$2,$3,$4,$5,$6,$7,$8,$9,$2,$3,0*
0 Add four circle primitives for the rounded corners*
1,1,$1+$1,$2,$3*
1,1,$1+$1,$4,$5*
1,1,$1+$1,$6,$7*
1,1,$1+$1,$8,$9*
0 Add four rect primitives between the rounded corners*
20,1,$1+$1,$2,$3,$4,$5,0*
20,1,$1+$1,$4,$5,$6,$7,0*
20,1,$1+$1,$6,$7,$8,$9,0*
20,1,$1+$1,$8,$9,$2,$3,0*%
G04 Aperture macros list end*
%ADD10RoundRect,0.243750X-0.456250X0.243750X-0.456250X-0.243750X0.456250X-0.243750X0.456250X0.243750X0*%
%ADD11RoundRect,0.243750X-0.243750X-0.456250X0.243750X-0.456250X0.243750X0.456250X-0.243750X0.456250X0*%
%ADD12RoundRect,0.243750X0.243750X0.456250X-0.243750X0.456250X-0.243750X-0.456250X0.243750X-0.456250X0*%
%ADD13RoundRect,0.243750X0.456250X-0.243750X0.456250X0.243750X-0.456250X0.243750X-0.456250X-0.243750X0*%
%ADD14RoundRect,0.218750X-0.256250X0.218750X-0.256250X-0.218750X0.256250X-0.218750X0.256250X0.218750X0*%
%ADD15R,1.300000X0.700000*%
%ADD16R,0.700000X1.300000*%
%ADD17R,1.250000X1.000000*%
%ADD18R,1.000000X1.600000*%
%ADD19R,2.000000X1.500000*%
%ADD20R,2.000000X3.800000*%
%ADD21R,1.450000X0.450000*%
%ADD22RoundRect,0.137500X-0.862500X-0.137500X0.862500X-0.137500X0.862500X0.137500X-0.862500X0.137500X0*%
%ADD23RoundRect,0.137500X-0.137500X0.862500X-0.137500X-0.862500X0.137500X-0.862500X0.137500X0.862500X0*%
%ADD24RoundRect,0.150000X0.150000X-0.875000X0.150000X0.875000X-0.150000X0.875000X-0.150000X-0.875000X0*%
%ADD25R,2.510000X1.000000*%
%ADD26R,1.000000X0.900000*%
%ADD27RoundRect,0.250000X-0.450000X0.262500X-0.450000X-0.262500X0.450000X-0.262500X0.450000X0.262500X0*%
G04 APERTURE END LIST*
D10*
X138690000Y-163012500D03*
X138690000Y-164887500D03*
X54210000Y-164512500D03*
X54210000Y-166387500D03*
D11*
X53012500Y-159710000D03*
X54887500Y-159710000D03*
D12*
X49774500Y-225030000D03*
X47899500Y-225030000D03*
X49774500Y-123430000D03*
X47899500Y-123430000D03*
D10*
X54340000Y-61442500D03*
X54340000Y-63317500D03*
X79550000Y-164442500D03*
X79550000Y-166317500D03*
D11*
X78302500Y-159900000D03*
X80177500Y-159900000D03*
D10*
X62250000Y-161982500D03*
X62250000Y-163857500D03*
D11*
X78482500Y-57670000D03*
X80357500Y-57670000D03*
D10*
X79740000Y-62372500D03*
X79740000Y-64247500D03*
X62460000Y-59632500D03*
X62460000Y-61507500D03*
D11*
X103822500Y-159540000D03*
X105697500Y-159540000D03*
D10*
X105170000Y-164092500D03*
X105170000Y-165967500D03*
X87870000Y-162132500D03*
X87870000Y-164007500D03*
D11*
X103792500Y-57720000D03*
X105667500Y-57720000D03*
D10*
X105130000Y-62352500D03*
X105130000Y-64227500D03*
X113190000Y-60462500D03*
X113190000Y-62337500D03*
X130560000Y-62622500D03*
X130560000Y-64497500D03*
D11*
X129282500Y-57940000D03*
X131157500Y-57940000D03*
D10*
X130660000Y-163672500D03*
X130660000Y-165547500D03*
D11*
X129432500Y-159270000D03*
X131307500Y-159270000D03*
D10*
X87830000Y-59032500D03*
X87830000Y-60907500D03*
D11*
X154625000Y-159470000D03*
X156500000Y-159470000D03*
D10*
X113360000Y-162432500D03*
X113360000Y-164307500D03*
D13*
X80206000Y-253526500D03*
X80206000Y-251651500D03*
D10*
X138380000Y-60372500D03*
X138380000Y-62247500D03*
X155770000Y-62762500D03*
X155770000Y-64637500D03*
D11*
X154452500Y-57810000D03*
X156327500Y-57810000D03*
D10*
X156040000Y-163832500D03*
X156040000Y-165707500D03*
D12*
X151374500Y-123430000D03*
X149499500Y-123430000D03*
D10*
X80206000Y-260082000D03*
X80206000Y-261957000D03*
X54806000Y-260033500D03*
X54806000Y-261908500D03*
D12*
X151374500Y-225030000D03*
X149499500Y-225030000D03*
X125974499Y-123430000D03*
X124099499Y-123430000D03*
X125974499Y-225030000D03*
X124099499Y-225030000D03*
X100574500Y-123430000D03*
X98699500Y-123430000D03*
X100574500Y-225030000D03*
X98699500Y-225030000D03*
X75174500Y-123430000D03*
X73299500Y-123430000D03*
X75174500Y-225030000D03*
X73299500Y-225030000D03*
D10*
X155136000Y-260033500D03*
X155136000Y-261908500D03*
X37030000Y-59472500D03*
X37030000Y-61347500D03*
X36920000Y-161732500D03*
X36920000Y-163607500D03*
D11*
X53132500Y-57720000D03*
X55007500Y-57720000D03*
D14*
X131025000Y-181187500D03*
X131025000Y-182762500D03*
X54625000Y-181900000D03*
X54625000Y-183475000D03*
X112375000Y-181537500D03*
X112375000Y-183112500D03*
X130975000Y-80050000D03*
X130975000Y-81625000D03*
X112775000Y-79587500D03*
X112775000Y-81162500D03*
X156475000Y-181600000D03*
X156475000Y-183175000D03*
X137575000Y-181787500D03*
X137575000Y-183362500D03*
X137975000Y-79987500D03*
X137975000Y-81562500D03*
X79925000Y-181850000D03*
X79925000Y-183425000D03*
X54635000Y-80477500D03*
X54635000Y-82052500D03*
X35825000Y-182187500D03*
X35825000Y-183762500D03*
X105475000Y-181537500D03*
X105475000Y-183112500D03*
X86725000Y-181587500D03*
X86725000Y-183162500D03*
X62075000Y-79187500D03*
X62075000Y-80762500D03*
X79975000Y-79625000D03*
X79975000Y-81200000D03*
X105575000Y-79787500D03*
X105575000Y-81362500D03*
X61225000Y-182537500D03*
X61225000Y-184112500D03*
X35815000Y-80260000D03*
X35815000Y-81835000D03*
D13*
X54806000Y-253526500D03*
X54806000Y-251651500D03*
D14*
X87375000Y-79187500D03*
X87375000Y-80762500D03*
D15*
X42675000Y-223475000D03*
X42675000Y-221575000D03*
D16*
X49375000Y-221675000D03*
X47475000Y-221675000D03*
D15*
X67975000Y-223775000D03*
X67975000Y-221875000D03*
X42725000Y-121725000D03*
X42725000Y-119825000D03*
D16*
X74625000Y-221875000D03*
X72725000Y-221875000D03*
D15*
X93575000Y-223325000D03*
X93575000Y-221425000D03*
X68100000Y-121650000D03*
X68100000Y-119750000D03*
D16*
X98425000Y-221575000D03*
X100325000Y-221575000D03*
D15*
X119075000Y-223200000D03*
X119075000Y-221300000D03*
D16*
X72750000Y-119725000D03*
X74650000Y-119725000D03*
D15*
X93500000Y-121625000D03*
X93500000Y-119725000D03*
D16*
X124125000Y-221275000D03*
X126025000Y-221275000D03*
X98325000Y-119675000D03*
X100225000Y-119675000D03*
D15*
X118950000Y-121925000D03*
X118950000Y-120025000D03*
D16*
X149275000Y-221400000D03*
X151175000Y-221400000D03*
X123800000Y-119950000D03*
X125700000Y-119950000D03*
D15*
X144125000Y-121700000D03*
X144125000Y-119800000D03*
D16*
X148900000Y-119825000D03*
X150800000Y-119825000D03*
D15*
X144450000Y-223325000D03*
X144450000Y-221425000D03*
D17*
X132900000Y-255760000D03*
X132900000Y-257760000D03*
X98325000Y-254100000D03*
X98325000Y-252100000D03*
X101050000Y-253175000D03*
X101050000Y-251175000D03*
D18*
X161100000Y-173325000D03*
X157900000Y-173325000D03*
X157900000Y-178325000D03*
X161100000Y-178325000D03*
X58150000Y-72600000D03*
X54950000Y-72600000D03*
X54950000Y-77600000D03*
X58150000Y-77600000D03*
X134275000Y-173200000D03*
X131075000Y-173200000D03*
X131075000Y-178200000D03*
X134275000Y-178200000D03*
X83650000Y-72675000D03*
X80450000Y-72675000D03*
X80450000Y-77675000D03*
X83650000Y-77675000D03*
X108650000Y-173200000D03*
X105450000Y-173200000D03*
X105450000Y-178200000D03*
X108650000Y-178200000D03*
X108725000Y-72725000D03*
X105525000Y-72725000D03*
X105525000Y-77725000D03*
X108725000Y-77725000D03*
X83175000Y-173200000D03*
X79975000Y-173200000D03*
X79975000Y-178200000D03*
X83175000Y-178200000D03*
X134100000Y-72900000D03*
X130900000Y-72900000D03*
X130900000Y-77900000D03*
X134100000Y-77900000D03*
X57775000Y-173250000D03*
X54575000Y-173250000D03*
X54575000Y-178250000D03*
X57775000Y-178250000D03*
X159275000Y-73000000D03*
X156075000Y-73000000D03*
X156075000Y-78000000D03*
X159275000Y-78000000D03*
D19*
X104325000Y-251100000D03*
X104325000Y-253400000D03*
D20*
X110625000Y-253400000D03*
D19*
X104325000Y-255700000D03*
D14*
X156150000Y-80037500D03*
X156150000Y-81612500D03*
D21*
X124370000Y-253815000D03*
X124370000Y-254465000D03*
X124370000Y-255115000D03*
X124370000Y-255765000D03*
X124370000Y-256415000D03*
X124370000Y-257065000D03*
X124370000Y-257715000D03*
X124370000Y-258365000D03*
X124370000Y-259015000D03*
X124370000Y-259665000D03*
X130270000Y-259665000D03*
X130270000Y-259015000D03*
X130270000Y-258365000D03*
X130270000Y-257715000D03*
X130270000Y-257065000D03*
X130270000Y-256415000D03*
X130270000Y-255765000D03*
X130270000Y-255115000D03*
X130270000Y-254465000D03*
X130270000Y-253815000D03*
D16*
X121520000Y-251790000D03*
X123420000Y-251790000D03*
X125240000Y-251770000D03*
X127140000Y-251770000D03*
X47425000Y-119750000D03*
X49325000Y-119750000D03*
D22*
X40377000Y-227062000D03*
X40377000Y-228332000D03*
X40377000Y-229602000D03*
X40377000Y-230872000D03*
X40377000Y-232142000D03*
X40377000Y-233412000D03*
X40377000Y-234682000D03*
X40377000Y-235952000D03*
X40377000Y-237222000D03*
X40377000Y-238492000D03*
X40377000Y-239762000D03*
X40377000Y-241032000D03*
X49677000Y-241032000D03*
X49677000Y-239762000D03*
X49677000Y-238492000D03*
X49677000Y-237222000D03*
X49677000Y-235952000D03*
X49677000Y-234682000D03*
X49677000Y-233412000D03*
X49677000Y-232142000D03*
X49677000Y-230872000D03*
X49677000Y-229602000D03*
X49677000Y-228332000D03*
X49677000Y-227062000D03*
D23*
X152850000Y-252130000D03*
X151580000Y-252130000D03*
X150310000Y-252130000D03*
X149040000Y-252130000D03*
X147770000Y-252130000D03*
X146500000Y-252130000D03*
X145230000Y-252130000D03*
X143960000Y-252130000D03*
X142690000Y-252130000D03*
X141420000Y-252130000D03*
X140150000Y-252130000D03*
X138880000Y-252130000D03*
X138880000Y-261430000D03*
X140150000Y-261430000D03*
X141420000Y-261430000D03*
X142690000Y-261430000D03*
X143960000Y-261430000D03*
X145230000Y-261430000D03*
X146500000Y-261430000D03*
X147770000Y-261430000D03*
X149040000Y-261430000D03*
X150310000Y-261430000D03*
X151580000Y-261430000D03*
X152850000Y-261430000D03*
D22*
X40377000Y-125462000D03*
X40377000Y-126732000D03*
X40377000Y-128002000D03*
X40377000Y-129272000D03*
X40377000Y-130542000D03*
X40377000Y-131812000D03*
X40377000Y-133082000D03*
X40377000Y-134352000D03*
X40377000Y-135622000D03*
X40377000Y-136892000D03*
X40377000Y-138162000D03*
X40377000Y-139432000D03*
X49677000Y-139432000D03*
X49677000Y-138162000D03*
X49677000Y-136892000D03*
X49677000Y-135622000D03*
X49677000Y-134352000D03*
X49677000Y-133082000D03*
X49677000Y-131812000D03*
X49677000Y-130542000D03*
X49677000Y-129272000D03*
X49677000Y-128002000D03*
X49677000Y-126732000D03*
X49677000Y-125462000D03*
X65777000Y-227062000D03*
X65777000Y-228332000D03*
X65777000Y-229602000D03*
X65777000Y-230872000D03*
X65777000Y-232142000D03*
X65777000Y-233412000D03*
X65777000Y-234682000D03*
X65777000Y-235952000D03*
X65777000Y-237222000D03*
X65777000Y-238492000D03*
X65777000Y-239762000D03*
X65777000Y-241032000D03*
X75077000Y-241032000D03*
X75077000Y-239762000D03*
X75077000Y-238492000D03*
X75077000Y-237222000D03*
X75077000Y-235952000D03*
X75077000Y-234682000D03*
X75077000Y-233412000D03*
X75077000Y-232142000D03*
X75077000Y-230872000D03*
X75077000Y-229602000D03*
X75077000Y-228332000D03*
X75077000Y-227062000D03*
X65777000Y-125462000D03*
X65777000Y-126732000D03*
X65777000Y-128002000D03*
X65777000Y-129272000D03*
X65777000Y-130542000D03*
X65777000Y-131812000D03*
X65777000Y-133082000D03*
X65777000Y-134352000D03*
X65777000Y-135622000D03*
X65777000Y-136892000D03*
X65777000Y-138162000D03*
X65777000Y-139432000D03*
X75077000Y-139432000D03*
X75077000Y-138162000D03*
X75077000Y-136892000D03*
X75077000Y-135622000D03*
X75077000Y-134352000D03*
X75077000Y-133082000D03*
X75077000Y-131812000D03*
X75077000Y-130542000D03*
X75077000Y-129272000D03*
X75077000Y-128002000D03*
X75077000Y-126732000D03*
X75077000Y-125462000D03*
X91177000Y-227062000D03*
X91177000Y-228332000D03*
X91177000Y-229602000D03*
X91177000Y-230872000D03*
X91177000Y-232142000D03*
X91177000Y-233412000D03*
X91177000Y-234682000D03*
X91177000Y-235952000D03*
X91177000Y-237222000D03*
X91177000Y-238492000D03*
X91177000Y-239762000D03*
X91177000Y-241032000D03*
X100477000Y-241032000D03*
X100477000Y-239762000D03*
X100477000Y-238492000D03*
X100477000Y-237222000D03*
X100477000Y-235952000D03*
X100477000Y-234682000D03*
X100477000Y-233412000D03*
X100477000Y-232142000D03*
X100477000Y-230872000D03*
X100477000Y-229602000D03*
X100477000Y-228332000D03*
X100477000Y-227062000D03*
X91177000Y-125462000D03*
X91177000Y-126732000D03*
X91177000Y-128002000D03*
X91177000Y-129272000D03*
X91177000Y-130542000D03*
X91177000Y-131812000D03*
X91177000Y-133082000D03*
X91177000Y-134352000D03*
X91177000Y-135622000D03*
X91177000Y-136892000D03*
X91177000Y-138162000D03*
X91177000Y-139432000D03*
X100477000Y-139432000D03*
X100477000Y-138162000D03*
X100477000Y-136892000D03*
X100477000Y-135622000D03*
X100477000Y-134352000D03*
X100477000Y-133082000D03*
X100477000Y-131812000D03*
X100477000Y-130542000D03*
X100477000Y-129272000D03*
X100477000Y-128002000D03*
X100477000Y-126732000D03*
X100477000Y-125462000D03*
X116576999Y-227062000D03*
X116576999Y-228332000D03*
X116576999Y-229602000D03*
X116576999Y-230872000D03*
X116576999Y-232142000D03*
X116576999Y-233412000D03*
X116576999Y-234682000D03*
X116576999Y-235952000D03*
X116576999Y-237222000D03*
X116576999Y-238492000D03*
X116576999Y-239762000D03*
X116576999Y-241032000D03*
X125876999Y-241032000D03*
X125876999Y-239762000D03*
X125876999Y-238492000D03*
X125876999Y-237222000D03*
X125876999Y-235952000D03*
X125876999Y-234682000D03*
X125876999Y-233412000D03*
X125876999Y-232142000D03*
X125876999Y-230872000D03*
X125876999Y-229602000D03*
X125876999Y-228332000D03*
X125876999Y-227062000D03*
X116576999Y-125462000D03*
X116576999Y-126732000D03*
X116576999Y-128002000D03*
X116576999Y-129272000D03*
X116576999Y-130542000D03*
X116576999Y-131812000D03*
X116576999Y-133082000D03*
X116576999Y-134352000D03*
X116576999Y-135622000D03*
X116576999Y-136892000D03*
X116576999Y-138162000D03*
X116576999Y-139432000D03*
X125876999Y-139432000D03*
X125876999Y-138162000D03*
X125876999Y-136892000D03*
X125876999Y-135622000D03*
X125876999Y-134352000D03*
X125876999Y-133082000D03*
X125876999Y-131812000D03*
X125876999Y-130542000D03*
X125876999Y-129272000D03*
X125876999Y-128002000D03*
X125876999Y-126732000D03*
X125876999Y-125462000D03*
X141977000Y-227062000D03*
X141977000Y-228332000D03*
X141977000Y-229602000D03*
X141977000Y-230872000D03*
X141977000Y-232142000D03*
X141977000Y-233412000D03*
X141977000Y-234682000D03*
X141977000Y-235952000D03*
X141977000Y-237222000D03*
X141977000Y-238492000D03*
X141977000Y-239762000D03*
X141977000Y-241032000D03*
X151277000Y-241032000D03*
X151277000Y-239762000D03*
X151277000Y-238492000D03*
X151277000Y-237222000D03*
X151277000Y-235952000D03*
X151277000Y-234682000D03*
X151277000Y-233412000D03*
X151277000Y-232142000D03*
X151277000Y-230872000D03*
X151277000Y-229602000D03*
X151277000Y-228332000D03*
X151277000Y-227062000D03*
X141977000Y-125462000D03*
X141977000Y-126732000D03*
X141977000Y-128002000D03*
X141977000Y-129272000D03*
X141977000Y-130542000D03*
X141977000Y-131812000D03*
X141977000Y-133082000D03*
X141977000Y-134352000D03*
X141977000Y-135622000D03*
X141977000Y-136892000D03*
X141977000Y-138162000D03*
X141977000Y-139432000D03*
X151277000Y-139432000D03*
X151277000Y-138162000D03*
X151277000Y-136892000D03*
X151277000Y-135622000D03*
X151277000Y-134352000D03*
X151277000Y-133082000D03*
X151277000Y-131812000D03*
X151277000Y-130542000D03*
X151277000Y-129272000D03*
X151277000Y-128002000D03*
X151277000Y-126732000D03*
X151277000Y-125462000D03*
D24*
X36010000Y-261430000D03*
X37280000Y-261430000D03*
X38550000Y-261430000D03*
X39820000Y-261430000D03*
X41090000Y-261430000D03*
X42360000Y-261430000D03*
X43630000Y-261430000D03*
X44900000Y-261430000D03*
X46170000Y-261430000D03*
X47440000Y-261430000D03*
X48710000Y-261430000D03*
X49980000Y-261430000D03*
X51250000Y-261430000D03*
X52520000Y-261430000D03*
X52520000Y-252130000D03*
X51250000Y-252130000D03*
X49980000Y-252130000D03*
X48710000Y-252130000D03*
X47440000Y-252130000D03*
X46170000Y-252130000D03*
X44900000Y-252130000D03*
X43630000Y-252130000D03*
X42360000Y-252130000D03*
X41090000Y-252130000D03*
X39820000Y-252130000D03*
X38550000Y-252130000D03*
X37280000Y-252130000D03*
X36010000Y-252130000D03*
X61410000Y-261430000D03*
X62680000Y-261430000D03*
X63950000Y-261430000D03*
X65220000Y-261430000D03*
X66490000Y-261430000D03*
X67760000Y-261430000D03*
X69030000Y-261430000D03*
X70300000Y-261430000D03*
X71570000Y-261430000D03*
X72840000Y-261430000D03*
X74110000Y-261430000D03*
X75380000Y-261430000D03*
X76650000Y-261430000D03*
X77920000Y-261430000D03*
X77920000Y-252130000D03*
X76650000Y-252130000D03*
X75380000Y-252130000D03*
X74110000Y-252130000D03*
X72840000Y-252130000D03*
X71570000Y-252130000D03*
X70300000Y-252130000D03*
X69030000Y-252130000D03*
X67760000Y-252130000D03*
X66490000Y-252130000D03*
X65220000Y-252130000D03*
X63950000Y-252130000D03*
X62680000Y-252130000D03*
X61410000Y-252130000D03*
D25*
X161635000Y-247670000D03*
X158325000Y-245130000D03*
X161635000Y-242590000D03*
D16*
X119244999Y-253089999D03*
X117344999Y-253089999D03*
X115094999Y-253089999D03*
X113194999Y-253089999D03*
D26*
X142990000Y-30320000D03*
X144390000Y-30320000D03*
D27*
X29990000Y-249087500D03*
X29990000Y-250912500D03*
M02*
